sofiareichl@DESKTOP-898QRQD:/mnt/c/Master/3rd Semestre/DL - Deep Learning/Lab/Lab2_EmbeddingSpaces/Word_Emb$ python test_Perfect.py
Model similiarity -0.08456323
Model similiarity 0.06594747
========================
X [array([-8.9566555e-04, -9.9525014e-06,  1.1600885e-03,  4.4668093e-04,
       -1.2532956e-03, -8.8093843e-04, -2.3010391e-05,  2.5284753e-04,
        1.9723231e-03,  5.3046219e-04, -4.5642333e-05, -9.9808839e-04,
       -1.5442100e-03,  6.2857277e-04,  3.0740534e-04,  4.4149393e-04,
       -1.0734444e-03,  4.8016748e-04,  1.3704496e-03, -1.2230821e-03,
       -3.6940121e-04,  1.9054804e-03, -9.0525049e-04,  1.6249345e-03,
        1.1460566e-03,  2.3655455e-04, -1.4431309e-05, -1.6982048e-03,
       -1.4985957e-04,  6.0329709e-04, -1.1532137e-03, -1.1117858e-03,
       -1.7589118e-03,  5.9983041e-04, -1.0933623e-03,  1.4113245e-04,
        8.5019338e-04, -9.5661450e-04, -2.5083282e-04, -9.9232153e-04,
       -1.7877561e-03,  8.8010449e-04, -1.4053984e-03,  2.2769251e-03,
       -1.0974943e-03,  3.0575367e-04,  1.8217022e-03, -1.6557255e-04,
        1.4142186e-03,  8.7586039e-04, -5.4873648e-04, -4.4677468e-04,
       -1.3706180e-04,  6.0631172e-04, -1.4416254e-03,  2.3063254e-03,
        6.7450514e-05, -6.2332099e-04,  1.8943008e-04, -1.7691194e-03,
       -1.3991649e-03,  2.1850311e-03,  1.4379810e-03, -1.5483508e-03,
        3.4816470e-04, -1.8252712e-04, -5.1692658e-04,  1.7108236e-03,
        1.7679887e-03, -3.6517737e-04, -4.6871279e-04,  5.8561034e-04,
       -1.2359476e-03,  9.2990277e-04, -1.4415579e-03,  2.6947174e-03,
       -1.1577522e-03, -7.4911653e-04, -2.0299621e-03,  1.7991358e-03,
        4.0700450e-04,  1.4484463e-03, -1.8945336e-04, -1.1056763e-03,
       -3.6992625e-04, -4.4147926e-04, -6.3197856e-04,  1.4377957e-03,
        2.6731638e-03, -4.6670280e-05, -5.4367766e-04, -2.0433748e-04,
        2.0566800e-04,  9.4378536e-04, -2.3109254e-03, -8.2896854e-04,
        7.0011051e-04,  1.3014590e-03, -1.0847313e-03, -1.2950742e-03],
      dtype=float32), array([ 3.3094082e-04,  1.9191222e-03, -7.2039524e-04,  6.5628084e-04,
       -7.2028273e-04,  3.2169987e-03,  1.7602171e-03, -9.5346558e-04,
        1.8475311e-03,  2.1302518e-03,  3.5843145e-04, -1.3690068e-03,
       -8.1093877e-04, -8.1496162e-04,  4.4286181e-04, -2.7884598e-04,
        8.1354438e-04,  5.3460279e-04,  2.1723625e-03, -1.4469472e-03,
        4.4584135e-04,  1.0870710e-03, -2.2495203e-04,  1.4838403e-03,
        4.4064230e-04,  2.1326527e-04,  1.7674563e-03,  2.9198411e-03,
       -2.0951361e-03,  9.6559850e-04, -2.0335605e-03,  1.5394378e-03,
       -2.0827660e-03,  7.2965043e-04, -4.9736496e-04, -5.2527199e-04,
       -4.4185360e-04,  1.5192039e-03,  1.2511330e-03, -1.5992215e-03,
        4.1386849e-04,  1.2169993e-03,  1.8504634e-03,  2.9449179e-03,
       -2.2048797e-03,  4.7267695e-05,  1.2336406e-03,  2.4511912e-04,
       -1.1957965e-04, -5.4584898e-04, -1.1489257e-03,  9.0321607e-04,
       -5.6068262e-04,  8.9837378e-04,  9.5761009e-04,  2.6929984e-04,
        1.1532998e-03,  9.6634839e-04,  7.6837873e-04, -1.1537370e-03,
       -1.5741272e-03, -1.6604557e-03,  2.6755867e-04, -5.0527009e-04,
        1.9173713e-03, -3.8077438e-04,  8.2482427e-04, -5.7498098e-04,
        4.1260727e-04, -1.4138198e-03,  5.0307281e-04,  2.9661221e-04,
       -2.2388408e-03,  2.3548919e-04, -2.1357525e-03,  1.9916024e-03,
       -6.4644928e-04,  1.3925639e-04,  3.1494186e-03, -9.9358463e-04,
        8.7355635e-05,  8.2958117e-04, -2.4759027e-03, -4.0759184e-04,
        2.5711369e-03,  8.2843640e-04, -1.1849285e-03, -6.0300424e-04,
       -2.7301497e-04,  1.1497386e-03,  1.0719741e-03,  1.3624531e-03,
       -1.3464736e-04, -1.3377675e-03,  1.3001764e-04, -3.1842794e-03,
       -3.1639659e-04, -4.9173832e-06,  3.0829996e-04, -1.1529907e-03],
      dtype=float32), array([-1.3491462e-03, -7.2703755e-04,  9.8231377e-04,  4.8933958e-05,
        1.4244639e-03,  2.1317552e-03,  7.1749522e-04,  1.4051658e-03,
        4.3839458e-04,  2.7875374e-03, -2.2117018e-03, -1.5401492e-03,
        1.0955137e-03,  9.3398383e-05,  8.2951330e-04,  1.0041433e-04,
        2.8641901e-03, -2.8921508e-03, -4.8156898e-04, -1.0229202e-03,
        8.3890004e-04,  6.5965403e-04,  9.6203352e-04,  1.3336970e-04,
       -1.7435083e-03,  2.6006333e-04, -7.5811555e-04, -1.3118541e-04,
        1.9969157e-04,  3.9514058e-04,  1.5562124e-05,  3.3728371e-03,
        4.5942725e-06,  1.7906942e-03,  4.9466110e-04,  1.7255307e-03,
        4.1276822e-04,  3.4890603e-03,  5.4787030e-05, -6.4594741e-04,
       -5.8394147e-04, -3.4257805e-04, -2.2061658e-03, -2.6401639e-04,
        1.0114538e-03,  3.0702967e-03,  7.1540626e-04,  2.1244138e-03,
       -1.7497592e-04,  3.1958707e-03, -2.3011718e-04,  7.9766900e-04,
       -1.4345562e-03, -5.9811678e-04, -1.0433412e-03,  3.3296612e-03,
        2.0638660e-03,  6.6901208e-04, -1.1092186e-04,  1.2212392e-03,
       -1.2705876e-03,  9.2427211e-04, -1.5449324e-03,  1.5856308e-04,
       -6.2140089e-04,  2.2353923e-04, -2.3354525e-03,  9.8168547e-04,
        8.1802858e-04, -3.3817624e-03,  1.2233872e-03,  1.1032207e-03,
        1.4150073e-04, -1.5757051e-03,  4.2234053e-04, -6.9122209e-04,
        1.2693258e-03, -1.6954457e-03,  9.1507856e-05, -3.0191583e-04,
        1.5047905e-03,  1.5175327e-03, -1.1121114e-03, -3.8446434e-04,
        7.0572773e-05, -9.0690897e-05,  1.5198139e-03, -6.0254266e-04,
        1.4237574e-03, -9.0994244e-04, -1.5914276e-03,  1.6181011e-03,
       -1.9915556e-04,  1.6885397e-03,  2.1828031e-03, -4.5980298e-04,
        1.3323266e-03,  1.7620770e-03, -2.7257591e-04, -2.3361598e-04],
      dtype=float32), array([-7.5789622e-04,  1.0850950e-03, -4.5404525e-04, -6.4367271e-04,
       -4.8223053e-04,  2.8840936e-04,  6.1790214e-04,  7.1713293e-04,
        1.1623751e-03, -5.5635825e-04,  1.0131688e-03, -7.0358755e-04,
       -1.1989903e-03, -1.1372732e-03,  8.7196502e-05,  2.0353771e-03,
       -1.2539134e-03, -1.0992803e-03,  1.4961447e-03, -1.3037445e-03,
        8.6937175e-04, -1.1369720e-03, -2.4433277e-05,  1.4801123e-03,
       -8.3748455e-04, -7.4129109e-04,  1.1547118e-03, -7.9267717e-04,
       -1.3179797e-03, -8.2995056e-04, -1.6465563e-03,  9.0289046e-04,
       -2.5646063e-03, -2.1942402e-04,  8.4719948e-05,  1.0848208e-03,
       -7.1701198e-04,  6.7851384e-04,  7.3727377e-04,  3.4722427e-04,
       -1.5647794e-03,  9.7304420e-04,  6.6043326e-04,  1.2399040e-03,
       -8.8515272e-04,  5.2112748e-04,  2.9266451e-03,  2.4332597e-03,
        6.1544828e-04,  2.0080751e-03,  2.5873720e-03, -8.2567043e-04,
       -1.3560439e-03, -8.8743080e-05, -9.8599773e-04,  1.3721680e-03,
       -8.6026441e-04, -2.8531134e-04, -4.7532763e-04, -9.7111356e-04,
        8.8602107e-04,  1.4822220e-03,  1.1323679e-04,  2.7086987e-04,
        1.4441932e-05,  1.8889288e-04, -1.3632099e-03,  1.5139709e-03,
        3.6815912e-04, -2.0642406e-03,  1.0618292e-03, -6.4031919e-05,
       -6.1934443e-05, -4.1458936e-04,  7.4355118e-04,  5.3400465e-04,
       -1.3380952e-03,  1.0150543e-05, -1.8378785e-03,  1.5929821e-03,
       -5.9645931e-04, -6.0068956e-04, -2.9228139e-04, -1.4421524e-03,
        8.5994304e-04,  8.2817371e-04, -1.0780338e-03,  3.8759247e-04,
        8.3182089e-04,  1.0800955e-03, -9.8335661e-04,  1.4984037e-03,
       -1.3967438e-04, -7.3996009e-05, -5.4610881e-04, -8.2819606e-04,
        9.8280492e-04,  5.2468909e-04,  3.6152350e-04, -1.5038891e-03],
      dtype=float32), array([ 3.2659734e-04,  4.8489185e-04, -9.7626165e-05, -6.8101099e-06,
       -2.8696764e-04,  1.7273810e-03, -1.0846438e-03, -2.8918785e-04,
        1.5978673e-03, -1.1393976e-03, -4.1772361e-04, -1.6974255e-03,
       -1.4410198e-03,  1.1301595e-03, -8.9836138e-04, -6.0590497e-05,
       -2.9455901e-03, -3.0421696e-04,  3.5631838e-05, -4.8822915e-04,
       -9.6110190e-04,  9.2402894e-05, -1.6019570e-04,  9.5159811e-04,
       -1.4128317e-03,  4.9910793e-04, -7.1568094e-04, -7.5581053e-04,
       -8.7530818e-04,  6.6530210e-04, -1.2040567e-03,  4.3245853e-04,
       -1.2111934e-03, -3.8377760e-04, -6.1615964e-04,  6.8209221e-04,
       -9.5948705e-04, -1.6106885e-03, -1.4872012e-04, -3.9654615e-04,
        5.7992584e-04, -1.2896971e-04, -5.6806218e-04,  1.0692265e-03,
       -4.4770603e-04, -1.1396164e-03,  1.0352241e-03, -6.5054235e-05,
        7.7700848e-04, -6.3166401e-04, -8.2574628e-04,  5.4862456e-05,
        1.3903233e-04,  6.3086767e-04, -3.9768341e-04, -3.8927601e-04,
        6.3851115e-04,  7.9682373e-05,  3.7921825e-04, -1.5836793e-03,
        6.9734920e-04, -4.1773013e-04,  1.3727884e-04, -9.2561042e-04,
        2.5719372e-04,  3.6792620e-04, -4.4479393e-04,  1.2120547e-03,
        4.5474424e-04, -7.2830683e-04, -8.9417699e-05, -3.1560796e-04,
       -1.2177948e-03,  2.0452484e-03, -1.1352628e-03,  6.0578670e-05,
        6.7891338e-04, -1.4188065e-03,  4.7084113e-04,  1.8577371e-03,
        1.3580704e-04,  1.3910091e-04,  6.0832303e-04,  4.0559573e-04,
       -3.7779743e-04,  1.5208441e-03, -1.0029650e-03,  9.6596795e-04,
        4.8102750e-04, -1.6824618e-03,  8.4493647e-04, -8.0645428e-04,
       -3.7163013e-04,  5.5021018e-04,  3.0986284e-04, -1.7422037e-03,
        5.4464723e-05, -2.4985051e-04, -9.5231441e-04, -2.2334268e-04],
      dtype=float32), array([ 1.04532915e-03,  1.81731698e-03, -1.62872908e-04,  6.20078281e-05,
       -4.24752565e-04,  1.01958762e-03, -7.10052263e-04, -1.37677381e-03,
        4.42601377e-05,  6.27212401e-04,  1.02428230e-03, -1.79514161e-03,
       -8.51604331e-04,  4.10367647e-04,  4.35374503e-04,  5.46025229e-04,
        3.71370916e-05, -2.18714820e-03,  6.83694147e-04, -8.52216792e-04,
       -1.77488590e-04, -5.17456210e-04,  4.59384260e-04,  4.61288728e-04,
       -3.47600813e-04, -7.81425624e-04,  2.06347700e-04, -1.25479547e-03,
       -1.71015016e-03,  6.82009122e-05, -1.09855214e-03, -4.26890183e-04,
       -2.38838792e-03, -2.03080795e-04, -1.56612878e-04,  4.99304384e-04,
       -3.01340973e-04, -5.64575836e-04,  6.76464755e-04, -1.82113872e-04,
        1.31124674e-04,  4.74619919e-05,  4.56422567e-04,  3.01900029e-04,
       -4.98508511e-04,  3.39810795e-04,  1.16657815e-03,  4.04561346e-04,
       -3.60660080e-04,  4.71503474e-04, -1.15710753e-03,  1.43708440e-03,
       -8.68073374e-04,  7.91281345e-05,  8.96863057e-04,  1.12458074e-04,
        2.08195386e-04,  3.74713200e-05,  2.84803275e-04,  5.75747865e-04,
       -1.22141966e-03, -7.16760405e-04,  9.57292621e-04, -6.94531700e-05,
        1.51387113e-03, -5.12936851e-04,  1.52871979e-03, -9.61125843e-05,
        1.70336780e-03, -1.20774331e-03, -1.76939226e-04,  3.64771520e-04,
       -6.60847058e-04,  8.91421805e-04, -3.14435293e-03,  1.62368861e-03,
       -1.08394364e-03,  1.27523674e-06,  1.87580590e-03, -1.59326009e-03,
        2.65636062e-03,  8.50418932e-04, -1.02470256e-03, -2.57624837e-04,
        7.63687887e-04,  3.70509777e-04,  4.53020511e-05,  8.92983284e-04,
       -1.23329530e-03,  1.95398065e-03, -7.64095981e-04,  3.40114821e-05,
        4.93041298e-04, -2.32076884e-04,  8.18280969e-04, -1.82853767e-03,
        4.08351712e-04,  1.05401943e-03,  1.02191720e-04,  1.04278815e-03],
      dtype=float32), array([-2.59397086e-04,  2.35044374e-03,  1.55144802e-03,  1.49717985e-03,
       -8.21644557e-04,  2.79251544e-04, -1.37062126e-03, -8.52743047e-04,
       -3.61167840e-05,  5.72197838e-04,  5.41509944e-04,  4.73256980e-04,
       -1.76887121e-03,  9.34252865e-04, -8.92970420e-04,  9.25218337e-04,
        1.24656863e-03, -5.08913305e-04, -2.99811742e-04,  9.34914395e-04,
       -7.25596095e-04, -4.56492591e-04,  1.36952917e-03, -8.45087343e-04,
        2.79123866e-04,  4.60356023e-05, -1.25538554e-05,  2.88539013e-04,
        5.57528401e-04,  1.37789734e-03,  5.90988420e-05, -8.78494815e-04,
        1.92321284e-04, -8.67597293e-04, -2.81607558e-04, -2.89821561e-04,
       -4.98469104e-04, -3.89663124e-04, -3.23060522e-04, -2.87283515e-03,
        2.70017830e-04, -3.65667802e-04, -2.35865777e-03,  6.47407724e-04,
        8.89830582e-04, -7.85294804e-04, -1.35945302e-04,  3.07172164e-03,
        5.53187565e-04, -8.29522964e-04, -5.40429719e-05, -5.22424642e-04,
        3.64227861e-04,  1.58550160e-03, -6.98156713e-04, -1.97068744e-04,
        8.55391554e-04, -5.25067386e-04, -2.01601465e-03, -1.35458854e-03,
        1.31975068e-03,  2.38075573e-03, -1.92859175e-03, -1.02288497e-03,
       -3.05118920e-05, -1.03402464e-03, -8.85112328e-04, -7.31178588e-05,
       -6.52797520e-04,  1.81298947e-03, -2.33952334e-04, -9.57780867e-04,
        3.91047623e-04, -3.35406039e-05,  1.85096671e-03, -1.70135871e-03,
        2.19098016e-04, -6.28192094e-04,  7.32154236e-04, -9.77554708e-04,
       -1.20454095e-03, -8.68204399e-04,  2.38985452e-03,  5.02048119e-04,
        2.07841792e-03,  8.34613224e-04,  1.13973205e-04,  7.22782686e-04,
        2.74169515e-03, -1.09198585e-03,  7.84313888e-04, -6.25708126e-05,
        1.49527972e-03,  1.36706291e-03, -4.19609336e-04, -2.11416790e-03,
        5.27911587e-04,  1.30429002e-03,  3.01642483e-03,  1.29600940e-03],
      dtype=float32), array([-1.0389561e-04,  7.9657137e-04, -3.7798402e-04,  5.8583706e-04,
       -9.1096025e-04,  3.1500676e-04, -2.4560778e-03,  1.1565033e-03,
       -5.5504881e-04,  8.3814992e-04,  1.3648606e-03, -1.8742472e-03,
        1.9059083e-04, -4.3129316e-05, -8.1795768e-04, -1.1688081e-03,
       -5.3820718e-04, -2.5393721e-03,  8.2486367e-05,  4.7237347e-04,
       -3.5171707e-03, -8.5779617e-04,  9.4698259e-04,  7.4044929e-04,
        1.1617059e-03,  2.0154889e-03, -7.1299059e-04, -9.5248537e-04,
        5.3924753e-04,  6.8462908e-04, -1.3082119e-03, -7.0750463e-04,
        1.5547486e-04, -2.5158253e-05,  8.7466068e-04, -6.3719350e-04,
        1.0680615e-03, -6.7990733e-04, -8.8472682e-04,  9.8015566e-04,
        4.3224244e-04, -1.5343624e-03, -5.1848288e-04, -7.4602477e-04,
       -4.2245150e-04,  3.2503126e-04,  2.0722740e-03,  2.4415159e-03,
        1.3950642e-03,  9.0351998e-04, -9.8594406e-04,  5.1007217e-05,
        6.0107140e-04, -9.2608883e-04, -5.3571130e-04, -2.0191947e-06,
       -8.6836424e-04,  1.7243575e-03, -2.0716125e-03, -2.2138716e-03,
       -6.9205952e-04,  9.9641038e-04, -1.3700311e-04, -1.3656153e-03,
       -6.0711947e-04,  1.8226447e-04, -1.4506502e-04,  1.4117286e-03,
       -1.2937199e-03, -1.2982244e-03, -1.2030293e-03, -1.3289136e-03,
       -1.7761711e-03,  6.4672786e-04,  9.4174361e-04,  7.6952972e-05,
       -1.4637690e-04,  1.3901968e-03, -3.0820200e-04,  2.4063378e-03,
       -9.2057401e-04,  9.1718463e-04, -3.8469242e-04,  4.0910789e-04,
        1.9823636e-03,  1.8604069e-03, -5.8282062e-04,  4.3944566e-04,
        1.5408220e-03, -1.5944964e-03, -1.4261791e-03,  4.1476393e-04,
        8.1894198e-04,  1.4596919e-03, -2.0378156e-04, -1.2266228e-03,
        1.5254790e-03, -5.5695238e-04,  6.1698578e-04,  4.3568539e-04],
      dtype=float32), array([-6.46341723e-05,  1.76703313e-03,  1.77917315e-03,  3.23528620e-05,
        1.25306236e-04,  1.30952627e-04, -4.06774343e-04,  1.09541055e-04,
        5.98882732e-04, -7.01621175e-04, -9.19244267e-05, -8.69195035e-04,
       -7.51232554e-04,  3.93466064e-04,  1.69719721e-03,  1.63189590e-03,
        3.04100889e-04, -1.64100027e-03, -2.17598383e-04, -1.57741632e-03,
       -5.66425733e-04,  3.59464902e-04,  2.38264809e-04,  8.91504635e-04,
        8.07525415e-04,  5.94813901e-04,  1.65475381e-03,  4.45359387e-04,
       -1.14768976e-04,  1.47179235e-05, -1.77802530e-03, -2.15230011e-05,
       -1.73948167e-04, -2.31780301e-04,  7.01217970e-04,  1.61334826e-03,
       -1.39084051e-03,  3.84624582e-05, -1.38390707e-04, -1.14227168e-03,
       -6.00179425e-04, -1.34307297e-03,  2.61582871e-04,  8.99814244e-04,
       -2.84102716e-04,  1.05174920e-04,  2.28275661e-03,  4.28020168e-04,
        1.68232992e-03, -4.48426843e-04,  1.19495590e-03,  8.71664786e-04,
        4.92833264e-04,  1.20178505e-03,  2.14361353e-06, -2.44947732e-05,
       -9.11556010e-04,  9.52585891e-04,  3.02414264e-04, -1.06001586e-04,
       -1.22366264e-03,  8.33212805e-04,  9.27305722e-04, -1.96404988e-04,
        8.67761730e-04,  7.82726565e-05, -1.99698770e-04,  6.34833414e-04,
        1.35636004e-03, -3.56196862e-04,  1.07611006e-03, -4.43040830e-04,
       -1.95877903e-04,  3.14551289e-04, -1.80184992e-03, -5.55510458e-04,
       -1.28038635e-03,  3.34187032e-04,  3.91565300e-05, -2.37461948e-03,
        1.33689711e-04,  5.31598402e-04, -1.21223729e-03,  2.04177541e-05,
       -1.28326542e-03, -5.04004944e-04, -1.82395685e-04,  4.26919927e-04,
        1.18477428e-05, -7.26089347e-04, -3.64031293e-05, -2.39557936e-04,
       -1.18492090e-03, -1.24534487e-03, -6.80661120e-04, -2.23338520e-05,
        2.09683392e-04,  2.48336553e-04,  4.57807328e-04, -2.72844452e-04],
      dtype=float32), array([-2.2202492e-04,  1.0780010e-03, -1.1393257e-03, -8.5338787e-04,
        9.7863190e-04,  6.8516599e-04, -2.3100304e-03,  9.8102924e-04,
       -5.5771193e-04,  2.6214924e-03,  5.3104729e-04, -4.2039430e-04,
       -2.9893671e-04,  3.3962188e-04, -1.5926205e-03,  2.7181140e-05,
        6.1270664e-04, -1.1095896e-03,  4.4044387e-04,  2.2265462e-03,
       -1.9382151e-03,  1.5104901e-03, -9.3110889e-04,  1.7027112e-03,
        5.1074877e-04,  3.7635502e-04, -6.8538554e-04,  2.1285629e-03,
       -4.1061314e-05, -8.8534353e-04,  4.5783425e-04,  3.6850586e-04,
        3.0883125e-04,  1.2629788e-03, -7.4094773e-04, -7.9527334e-04,
        1.2627273e-03, -2.5031978e-04,  5.7087746e-05, -9.3910052e-04,
       -7.2010816e-04, -2.9092003e-04,  2.3171229e-03, -2.1720136e-04,
       -1.7773985e-03, -3.3590483e-04,  2.2053597e-03, -4.1293068e-05,
        7.7401072e-04,  1.0350716e-03, -2.6091058e-03,  1.0509251e-03,
       -1.3089565e-03,  9.7765389e-04, -1.0754037e-04, -1.4317296e-03,
       -4.1647640e-04,  6.0015614e-04,  5.2940927e-04, -1.4927231e-03,
       -1.8214743e-03,  6.9265283e-04, -1.3764671e-03, -7.6565210e-04,
        1.4454738e-03, -6.0003152e-04, -2.6047495e-04,  5.0548988e-05,
        1.3537735e-03,  5.3239703e-05, -4.9358909e-04, -5.8775785e-04,
       -1.0577030e-03,  5.4512738e-04, -1.3072030e-03, -3.5734347e-04,
       -6.2695130e-05,  4.9953326e-04,  3.3713906e-04, -1.3853388e-04,
        1.0293248e-04,  1.7082548e-03, -4.2500615e-04, -7.6473347e-04,
        1.0944797e-04,  1.5725277e-03,  6.3721417e-04, -2.3634396e-04,
       -9.8495965e-04,  1.2735595e-03,  7.6419348e-04,  4.9215445e-04,
        2.2253685e-04, -1.3248273e-03,  4.1546026e-04, -1.6136125e-03,
       -3.0851134e-04,  3.8560294e-04,  9.1575208e-04,  3.1971216e-04],
      dtype=float32), array([ 1.1352861e-03,  1.0668115e-03,  9.4883208e-04, -7.0475944e-04,
       -4.6263527e-04,  1.0097467e-03, -8.2172098e-04, -4.4543715e-04,
       -2.6290087e-04, -1.0849033e-04,  1.3061212e-03, -1.7507385e-03,
        1.5119428e-04, -1.0836371e-04, -3.0715376e-04, -9.6243370e-04,
        2.7419161e-04, -4.8642969e-04,  1.0653279e-04, -8.3797611e-04,
        8.0568431e-04,  5.0802692e-04,  1.1529941e-03,  1.2408943e-03,
       -1.1367521e-03,  4.1708205e-05,  5.2230613e-04, -1.0368434e-03,
       -5.7334959e-04,  2.9033123e-04, -9.8171283e-04,  2.4655645e-04,
       -6.2647933e-04, -4.8172157e-04, -1.0598864e-03,  1.1292910e-03,
        4.9676350e-04,  8.6311222e-04,  7.2900375e-04, -5.1622884e-04,
       -9.2537455e-05, -1.0526883e-03,  2.9053565e-04, -4.5798133e-05,
       -1.6277814e-03,  5.6051736e-04,  9.0946694e-04, -4.9772486e-04,
        1.1274594e-04,  6.1578903e-04, -7.3069026e-04,  4.3608135e-04,
        2.2009424e-04, -1.1607653e-03, -4.8368925e-04, -1.7979518e-04,
        5.2439875e-04,  6.4316555e-04, -5.9142336e-04, -1.6180399e-03,
       -1.4345114e-03,  1.5701702e-03, -2.6835498e-04, -3.1701426e-04,
       -1.0419333e-03,  3.7682793e-04,  1.1332976e-03,  4.5862026e-04,
        4.6167392e-04, -2.1681884e-04,  4.4870251e-04, -2.1196487e-04,
        2.8244569e-04,  1.3366916e-03,  1.5460051e-03, -2.5997224e-04,
       -2.9473068e-04, -1.2721414e-03,  2.8467589e-04,  3.9595726e-04,
       -1.3375123e-03,  2.6677584e-04, -3.1063295e-04, -3.3012431e-04,
       -4.7594364e-04,  1.4118605e-03, -7.5575156e-04, -3.1523019e-04,
        6.8214722e-04, -7.3059212e-04, -6.4375292e-04,  1.9577802e-03,
        4.3751198e-04, -4.0962527e-04,  4.3982011e-04, -1.5062615e-03,
       -3.0050753e-04,  1.2122662e-03, -3.2008250e-04, -1.3461282e-03],
      dtype=float32), array([ 4.26795072e-04,  2.02178746e-03, -8.89487856e-05, -2.04972108e-03,
        1.18539180e-03,  3.58763675e-04,  1.11104455e-04, -6.29477843e-04,
       -5.54978033e-04, -1.39940775e-03, -2.20213225e-03, -1.29208172e-04,
        7.73996639e-04,  3.02841770e-04, -2.35540117e-03,  1.09974397e-04,
       -1.41510472e-03, -7.71728170e-04, -3.53081385e-04, -1.45666592e-03,
       -1.66895494e-04, -9.99113079e-04,  1.06176070e-03,  9.59060446e-04,
        3.57547484e-04,  4.71166451e-04,  7.20802636e-04,  3.62392864e-04,
       -1.20404665e-03,  4.52508626e-04, -1.32553140e-03,  2.95821606e-04,
       -2.20875896e-04, -1.61963329e-03, -1.37270463e-03,  1.52142288e-03,
       -9.17484751e-04, -6.77133721e-05,  8.74156249e-04,  9.68364999e-04,
        1.48298801e-03, -1.17949431e-03, -8.64001398e-04, -1.07164285e-03,
        4.59195522e-04, -1.59907539e-03, -1.43622642e-03, -1.75445079e-04,
       -2.00377763e-04,  5.71582641e-04,  1.37575262e-03,  7.59107934e-04,
       -8.45290197e-04,  8.39119079e-04,  6.12121075e-04, -1.50986380e-04,
       -2.21270398e-04, -7.16037815e-04, -1.03282870e-03,  1.54830771e-03,
        7.98571215e-04,  3.87178152e-04,  7.27740116e-05,  1.08229730e-03,
        8.24113013e-05, -1.06630474e-03,  4.81022435e-05, -6.71415473e-04,
        1.05541712e-03, -1.54183630e-03, -9.03581822e-05, -1.63524179e-03,
       -1.69096550e-03,  8.50945013e-04,  5.26627700e-04, -6.58774807e-04,
        8.79616360e-04,  1.71870895e-04, -1.93975429e-04,  1.66146411e-03,
       -6.09915005e-04, -2.20191176e-03,  8.99497390e-05,  4.70250321e-04,
       -8.60210916e-04,  1.80272781e-03, -9.42435290e-05, -3.94669987e-05,
       -4.42024262e-04, -1.63229310e-03,  1.77186143e-04, -1.94709538e-03,
       -1.95343237e-05,  1.06009706e-04, -1.25354913e-04, -1.10940030e-03,
       -1.76546106e-03,  7.33127701e-04, -1.32670871e-03, -5.49853547e-04],
      dtype=float32), array([-2.28896442e-05,  7.34318804e-04,  6.39674545e-04,  2.00147741e-03,
       -4.08598600e-04,  9.77465301e-04, -5.48009935e-04,  4.67434438e-04,
        1.87999278e-03,  9.98738105e-04, -1.14664610e-04, -1.24615303e-03,
       -1.13249070e-03,  6.75456889e-04,  2.73143844e-04, -4.01508325e-04,
       -1.14429544e-03, -1.54922111e-03, -6.49844937e-04, -8.33094644e-04,
       -1.90688518e-03, -4.99407586e-04,  3.42123880e-04,  4.53710672e-04,
       -1.14744005e-03,  7.14700669e-04, -5.38444147e-05, -7.89805956e-04,
        8.02429684e-04,  2.54881132e-04, -3.36463883e-04, -6.02093001e-04,
       -4.01904195e-04,  1.11811457e-03, -2.54268968e-03,  1.60208985e-03,
        9.12967371e-05,  2.31936167e-04,  3.77251883e-04, -1.25859864e-04,
       -4.48875129e-04, -8.42102047e-04, -6.48295623e-04, -2.32907827e-04,
       -3.86415719e-04,  6.70164765e-04, -1.29177049e-03,  2.63555063e-04,
        1.29989150e-03, -8.35370738e-04,  8.21891881e-04,  1.00019050e-03,
       -1.43977624e-04, -7.72668456e-04,  5.39183733e-04,  1.18396827e-03,
        2.48914497e-04,  1.22439791e-03, -9.46104701e-04, -2.84851907e-04,
       -3.49048176e-04,  5.94151672e-04,  1.38527958e-03, -1.22105109e-03,
        1.25586207e-03,  7.96059670e-04,  2.00942927e-03, -3.99752258e-04,
       -1.35780033e-03,  1.65194986e-04, -3.12272059e-05, -1.00927486e-03,
       -8.49416771e-04, -2.72852165e-04, -4.69845865e-04, -4.11576271e-04,
        4.19833697e-04,  3.98554635e-04,  1.33123680e-03,  1.00355700e-03,
        7.94155698e-04,  2.97600147e-03, -1.15795387e-03, -6.91388443e-04,
       -1.68464994e-05, -1.03006023e-05,  1.13442249e-03, -4.69568977e-06,
        1.46716675e-05,  2.18346438e-04, -1.17207121e-03,  2.14500469e-03,
        7.41217518e-04,  2.32819398e-03, -1.37303618e-03, -6.07542403e-04,
        2.50818033e-04,  5.47226402e-04,  5.83427201e-04,  2.33242754e-04],
      dtype=float32), array([ 2.6476169e-03,  1.4426062e-03, -6.2658649e-04,  1.5586237e-03,
       -7.3475455e-04, -7.3034427e-04, -3.8280536e-04, -2.5874760e-04,
       -2.9911353e-05,  4.0569087e-04,  4.1191015e-04, -2.0782719e-03,
       -2.4485681e-04,  7.7113044e-04, -5.5864122e-04,  1.5387263e-03,
       -4.7236630e-05, -1.5676824e-03, -1.0264901e-03, -4.5618002e-04,
        6.2756508e-04, -9.5316197e-04, -7.7292864e-04,  2.2439961e-04,
       -4.0954608e-04, -5.3316768e-04,  1.0186291e-03,  6.3093950e-04,
        1.1990230e-03, -2.6201914e-04, -7.6071221e-05,  2.1284234e-04,
       -1.5776022e-03,  1.6076013e-03, -1.7192212e-03,  2.3269100e-04,
        4.4437809e-04,  9.1153278e-04, -2.1609887e-04, -4.6165634e-04,
       -1.2345498e-03,  4.3502019e-04, -1.6425929e-03,  1.2272757e-03,
       -7.3830789e-04,  1.7892687e-03, -8.6598354e-04,  2.0618193e-04,
        1.9126520e-03, -1.1602654e-03,  1.5651804e-04,  7.8689080e-04,
        7.6407439e-04,  6.6947629e-04, -2.0412845e-03,  3.0377336e-05,
        4.9455237e-04,  1.9310804e-03,  1.3038922e-03, -1.0067510e-03,
       -2.0401431e-03,  2.7269362e-03,  2.7255988e-04, -2.4726561e-03,
        6.6288305e-04,  3.0678010e-04,  1.8045472e-04, -9.8479597e-04,
       -8.1661140e-04, -1.6320168e-04, -1.4023068e-03, -1.1634085e-03,
       -1.7057031e-03,  1.0053604e-04, -7.7759381e-04,  7.4635574e-04,
        2.1196632e-03,  6.3162908e-04, -8.1447262e-04,  7.7271834e-04,
        4.2489683e-04,  7.8741513e-04, -3.5581549e-04, -1.7936373e-04,
        3.7860608e-04,  3.6497597e-04, -2.4611629e-03, -5.7584589e-04,
        1.7887499e-04,  1.3013150e-03,  1.5178078e-03,  1.0507063e-03,
        1.2453889e-03,  1.3739310e-03,  1.1744214e-03, -9.1873968e-05,
       -1.0032861e-03, -9.8434230e-04,  1.8007660e-03, -2.8366660e-04],
      dtype=float32), array([-5.3104060e-05,  7.1019720e-04,  5.9191475e-04,  2.2694794e-05,
       -5.4853049e-04,  5.5433845e-04, -7.9394353e-04,  9.9624344e-04,
        8.7388669e-04,  8.0844539e-04, -3.2104849e-04, -9.8971999e-04,
       -1.8278245e-03, -1.9348856e-05,  1.1438953e-03,  1.8719811e-03,
       -8.2738529e-04, -8.0407120e-04,  1.1310721e-03, -7.6067541e-04,
        2.9508374e-04, -1.3795104e-04, -1.0249671e-05,  2.0709366e-03,
        1.0121911e-03,  7.1809220e-04, -3.7385794e-04, -1.2824744e-03,
       -1.2104951e-03,  1.5969128e-04, -3.0121759e-03,  3.7527326e-04,
       -1.1618033e-03, -1.4365464e-03, -1.2839324e-03,  1.0539715e-03,
        1.1429598e-03,  4.5894241e-04,  7.9344242e-04,  4.7634916e-05,
        5.0719350e-04, -1.8317133e-04, -1.0030607e-03,  1.7719255e-04,
       -8.3719892e-04,  8.9497177e-04,  1.4875391e-03,  1.5825357e-03,
        7.5891044e-04,  2.1497835e-04,  1.6559713e-03, -5.0548802e-04,
       -7.7046722e-04,  2.4668805e-04,  1.3005795e-04,  1.1831208e-03,
       -1.0501706e-03, -1.6949503e-03,  2.3510531e-03,  9.2215312e-04,
       -2.0309891e-04,  7.6537754e-04, -1.5820703e-04, -9.6434448e-04,
        5.8633613e-04,  6.1193871e-04,  1.4884702e-04,  1.7729311e-04,
        6.0235732e-05, -1.2972562e-03, -9.3443657e-04, -6.2909455e-04,
        6.6919031e-04,  1.3472700e-03, -2.9923674e-05,  1.0793005e-03,
       -2.9315354e-04, -6.7534705e-04, -7.3375739e-04,  3.0697039e-03,
       -1.5237175e-03, -3.0530948e-04, -1.6856325e-04, -1.9329013e-03,
        1.2089922e-03, -5.1413977e-04, -2.7517312e-05,  3.3701496e-04,
        2.6970575e-04,  8.5253769e-04,  1.3490413e-04,  1.0217533e-03,
        1.3523961e-03,  1.3341088e-04, -2.0665228e-03, -1.5779810e-03,
        1.3619121e-03,  1.5640327e-03, -1.0079728e-03, -9.0856926e-04],
      dtype=float32), array([-2.2748797e-03,  1.0325348e-03, -5.2166148e-04,  5.7518529e-04,
        1.3248485e-03,  4.0996648e-04, -6.4315088e-04,  1.5880189e-04,
        1.2788050e-04,  4.5406533e-04,  5.4609112e-04, -1.7518468e-03,
        1.9940900e-04,  3.9967554e-04,  1.1724995e-03, -7.2935433e-04,
        2.6148319e-04, -1.5776834e-03, -1.7802035e-04,  2.6313213e-04,
       -8.6916384e-04, -2.1618916e-04,  7.4953708e-04,  1.8378398e-03,
        9.3915849e-04,  7.0598064e-04, -1.1977598e-03, -6.4648397e-04,
       -4.2163959e-04,  1.0584523e-03, -1.0123915e-03,  1.4978860e-03,
       -5.5818673e-04,  1.8583113e-04, -9.4471354e-04,  2.1803335e-04,
        6.6626788e-04, -4.7253378e-04,  1.2243235e-03,  3.1780737e-04,
       -6.7060850e-05, -1.1406629e-03, -3.7883327e-04, -6.2314456e-04,
       -1.3494003e-04, -4.6470683e-04,  1.0025696e-03,  1.3696974e-03,
        1.2331207e-03,  9.5627096e-04,  7.5089489e-04,  7.9330610e-05,
        6.6560350e-04, -4.5451350e-04,  1.4991534e-03,  1.0610714e-03,
       -1.3218812e-03, -3.6760012e-04, -1.5469785e-03, -2.6897647e-04,
       -1.9902954e-04, -2.8521844e-04,  1.2319309e-03, -6.1598723e-04,
       -6.0073147e-04,  6.5547944e-04,  2.4285085e-04, -5.2380932e-05,
        1.0650971e-03, -7.9221051e-04,  1.0449847e-03, -1.1087770e-03,
        3.4226498e-05,  6.0242217e-04, -2.9190982e-04, -4.1122280e-06,
        4.0651232e-04, -3.6612400e-04,  4.1650113e-04,  5.9770831e-05,
       -5.8490847e-04,  9.4914710e-04, -8.4744657e-05, -1.4551331e-03,
        1.4971045e-03,  1.5376548e-03, -6.5950320e-05, -1.2290004e-03,
       -5.3940364e-04, -1.0618613e-03, -2.3261413e-03, -5.4725783e-04,
        6.7161291e-04,  4.4591216e-04, -1.4696877e-03, -2.9113863e-04,
        1.1044492e-03,  7.2391320e-04, -1.1899708e-03, -1.0273537e-03],
      dtype=float32), array([-4.6333502e-04,  5.5406004e-04, -5.0482795e-05,  8.5361465e-04,
       -1.6076508e-03,  7.2060566e-04,  1.9193877e-04, -7.3242222e-04,
        1.8681628e-03, -5.2725582e-04, -1.9376562e-04, -1.8312150e-03,
       -8.9650287e-04, -5.4068654e-04,  1.8784023e-03,  7.4847223e-04,
        9.9097910e-05, -4.8199965e-04,  8.3958457e-04, -7.2265440e-04,
       -1.2733444e-03, -6.9192413e-04,  8.4314088e-04,  1.6599296e-03,
       -3.1720765e-04,  1.5852074e-04, -3.3821612e-05,  3.9120167e-04,
       -4.3775950e-04, -6.5535976e-05, -1.5982506e-03,  1.0820847e-03,
       -1.1344792e-03, -3.3674439e-04, -8.2301436e-04,  1.3769444e-03,
        3.6288213e-04,  1.1238416e-04,  1.5921977e-03, -1.0359365e-03,
       -3.5276715e-04, -2.1660504e-05, -1.9429252e-03,  3.5776559e-04,
        1.6353351e-04,  1.8618576e-04,  8.7328342e-04,  9.6759200e-04,
       -7.2910101e-04, -1.0509493e-04, -2.0439638e-04, -5.8344909e-04,
       -9.3994173e-04, -1.9208814e-03,  9.8264730e-04,  2.4748812e-03,
        5.2411226e-04,  6.1764388e-04,  8.5061119e-04, -8.1158872e-04,
       -9.8136172e-04,  5.8939331e-04,  9.9532655e-04,  1.7800789e-04,
        7.1099860e-04,  5.3880538e-04, -5.6776858e-04, -7.8887906e-04,
        7.0585497e-04, -1.3646841e-03,  3.3107586e-04, -6.4776326e-04,
        1.2187954e-04,  8.8012131e-04, -1.4095429e-03,  9.6089294e-04,
        1.2831509e-03, -1.1390706e-04, -6.2851183e-04, -7.4147148e-04,
        2.4080984e-04,  1.0522500e-03, -1.2485150e-03, -9.4945449e-04,
        2.1259252e-04, -8.1946707e-04, -7.4027176e-04, -5.1577162e-04,
        1.2382917e-03, -7.6117605e-04, -1.3256137e-03,  1.9092101e-03,
        6.8146634e-05,  6.3928968e-04, -4.2904692e-04, -7.5568573e-04,
        4.9980974e-04,  1.2193982e-03, -5.5007660e-04, -5.7337055e-04],
      dtype=float32), array([ 1.8517793e-03,  1.4726652e-03,  2.7432566e-04, -5.2567694e-04,
        2.7485425e-04,  2.2508377e-04,  1.4429762e-03, -1.8043106e-03,
       -8.4105349e-04, -3.3905002e-04, -2.2570998e-04, -2.7671034e-04,
        2.2807601e-04, -6.1139266e-04,  2.4025294e-03, -3.7280840e-04,
        1.0478584e-03, -5.5989821e-04, -2.9865708e-04,  7.9839793e-04,
       -3.1441497e-03, -1.5553976e-03,  4.3998001e-04,  1.5733321e-03,
       -1.8081565e-04, -9.3396928e-04, -3.4671216e-04,  1.6770626e-03,
       -7.2919787e-04, -7.0531282e-04, -1.1459645e-03,  1.1066855e-03,
        2.4636384e-04,  7.5671458e-05,  1.0607647e-03,  1.9225260e-03,
        7.5656030e-04,  5.9574167e-04,  1.0930379e-03, -9.3575777e-04,
       -3.0798058e-04,  1.5702247e-04, -2.2234363e-03, -2.1466995e-03,
       -7.2646153e-04,  2.5285338e-04, -6.2950392e-04,  1.9116170e-04,
        1.0776307e-03, -6.4753607e-04, -4.4083481e-05, -1.1419642e-03,
       -1.7569700e-04, -9.7494788e-04,  2.7309048e-03,  3.4982699e-04,
       -6.6748727e-04, -3.8310111e-05, -1.1248606e-03,  9.4314595e-04,
       -8.6562865e-04,  3.6335732e-05,  2.4876883e-03,  1.3422946e-03,
        7.8990374e-04, -1.4913552e-03, -1.6948751e-03, -1.3417476e-03,
        2.1271163e-03, -6.7251839e-04, -7.7082869e-04,  1.5271854e-04,
       -1.1366541e-03,  1.7213593e-03, -2.8093904e-04, -5.1546440e-04,
        4.3654468e-04,  4.7014892e-04, -1.4356141e-03, -7.0371077e-04,
       -3.4471354e-04,  6.5006077e-04, -3.5612451e-04, -1.3775537e-03,
       -1.0992063e-03, -5.2582013e-04, -7.5881416e-04, -2.2593411e-03,
        1.3333731e-03, -1.1256993e-03, -1.7818186e-03,  1.0243991e-03,
       -2.1726116e-04, -5.2388193e-04, -4.9827894e-04,  5.3632515e-04,
       -9.2865463e-05,  1.2895396e-03,  2.0816061e-03, -9.8683825e-04],
      dtype=float32), array([ 1.4493546e-03,  1.8627407e-03, -6.2417082e-04, -4.0883259e-04,
       -8.2229904e-04, -3.9284164e-04, -1.6392865e-03, -5.5601634e-04,
       -1.0795026e-03,  1.5982011e-03,  1.0532942e-03, -2.1257671e-04,
       -7.1749883e-04, -1.5211162e-04,  1.7502731e-04,  1.3613091e-03,
       -3.0732327e-04, -4.1668850e-04, -4.5307027e-04,  4.7962545e-05,
        8.7301456e-04,  4.4321528e-04, -1.4858845e-03,  6.8001333e-04,
        9.3997869e-04,  3.3459140e-04,  9.0689131e-04, -3.7989474e-04,
       -1.3788524e-03, -1.0542142e-03, -5.3988450e-04, -5.0053268e-04,
       -1.7132262e-03, -3.2941464e-04, -9.1500860e-04, -4.5766722e-04,
        3.7400835e-04,  6.8769098e-04, -7.2362582e-04, -2.2920434e-04,
       -1.9593898e-03,  3.3334049e-04, -4.9602317e-05,  1.3300430e-04,
       -5.6518469e-04, -6.7496684e-04,  4.2821179e-04,  2.3135763e-04,
       -9.5980399e-04,  3.4290613e-04, -2.0716051e-03,  5.1743205e-04,
       -5.8607699e-04,  3.9395443e-04,  1.9631343e-04,  4.0093710e-04,
        7.3435705e-04, -1.9825991e-04,  7.0895720e-04, -4.4247085e-05,
       -2.8527111e-03,  5.3702708e-04,  1.3831963e-03, -1.0690300e-03,
        8.4768777e-04, -1.0353297e-03,  5.5210799e-04,  3.1785574e-04,
        2.9566803e-03,  1.2026087e-03, -1.9715907e-04, -7.1317068e-04,
       -2.1872541e-03,  4.2316766e-04, -2.3629447e-03,  6.7406113e-04,
        4.1564927e-06,  1.4425784e-03,  8.9991611e-04, -6.0773495e-04,
        1.2295031e-03,  1.5115597e-03,  1.0637194e-04,  4.6214068e-04,
       -1.1204699e-04, -7.3489541e-04,  1.2406742e-03,  7.6001667e-04,
       -6.8252650e-04,  1.0251746e-03, -1.0971687e-03,  8.4070802e-05,
        1.4447076e-03, -2.5804940e-04, -3.6644170e-04, -5.6244864e-04,
        4.1654261e-04, -2.6383187e-04,  5.5692153e-04, -7.2345260e-04],
      dtype=float32), array([-1.4095246e-03,  5.5037090e-04,  1.2003314e-03, -5.2117789e-04,
       -2.5379844e-03,  9.1456127e-04, -7.3603587e-04, -7.2364736e-04,
       -2.4387497e-03, -4.7618116e-04,  1.6313309e-03,  1.9856882e-03,
       -6.4928818e-04,  7.0273189e-04, -5.6281348e-04, -6.3615077e-04,
       -4.1695626e-04, -4.5803085e-04, -9.5553114e-05, -9.2375523e-04,
        9.9354400e-04,  2.9586139e-03,  4.3122625e-04,  2.3510656e-04,
        1.0530975e-03,  1.3532080e-03, -8.4370724e-04, -4.7862681e-04,
        5.8974174e-04, -2.3030210e-03,  9.1632653e-04,  1.8246819e-03,
        6.4053369e-04, -2.5944016e-03,  2.6743903e-03,  3.0608033e-05,
        1.9185052e-03,  2.8808374e-04, -1.2949323e-03,  6.3168618e-04,
       -6.6526700e-05, -1.2877213e-03, -1.0412154e-03, -2.0072781e-03,
        2.7062327e-03,  1.4939607e-04,  1.3851983e-03,  1.0960392e-03,
       -3.4620976e-03, -1.4586770e-03, -2.5096140e-03,  9.8568201e-04,
       -8.3449995e-06,  1.9623083e-03,  7.2806678e-04,  3.1825248e-04,
       -2.7964707e-06,  2.1570283e-03, -1.3371925e-03,  1.5435677e-03,
       -1.7674800e-03, -1.6745836e-03, -6.9430645e-04,  1.1721691e-03,
        3.3397663e-03,  6.7776570e-04,  1.1888554e-03, -4.1246141e-04,
       -1.2174232e-03,  7.1889619e-05,  1.8212193e-03, -1.0255590e-04,
       -4.7822460e-04,  1.4282656e-03, -2.1012076e-03, -1.0288495e-03,
        4.2277778e-04,  1.8613900e-03, -9.9380245e-04,  3.2699401e-05,
        5.4145872e-05,  5.2610121e-05, -1.2996588e-03,  3.9043571e-04,
        4.7917780e-04,  4.4995372e-04,  1.3051074e-03, -5.9234252e-04,
       -2.7829863e-04, -8.1403804e-04,  1.4249998e-03, -2.6268419e-03,
       -1.8378046e-03,  7.6837203e-04,  8.2483271e-04, -2.6443554e-04,
       -5.5693090e-06, -1.9832267e-03,  2.4101355e-04,  1.3422656e-03],
      dtype=float32), array([ 6.7300186e-04, -7.7976430e-05, -6.0730934e-05, -6.8069872e-05,
       -1.1124313e-03,  5.6585332e-04, -7.1100821e-04, -9.3189941e-05,
       -9.1911614e-05,  5.6487648e-04,  1.0622295e-03, -8.1946503e-04,
        7.2341086e-04,  2.5627666e-04,  8.2150497e-04,  6.0133007e-04,
        7.2388106e-04, -2.0933412e-03,  1.7211994e-03,  7.2427106e-04,
       -1.9599688e-03,  7.2346855e-04,  1.0851854e-03,  1.7539747e-03,
       -4.0312647e-04,  1.5617480e-03,  6.3458120e-04, -1.2757718e-03,
       -5.1557191e-04, -9.1774156e-04, -2.3774283e-03, -1.9130333e-03,
        2.9108170e-04,  4.7333413e-04,  1.8687826e-04,  1.5368504e-03,
        2.3524296e-03, -4.7168869e-05, -6.7639485e-04,  9.4904227e-04,
        4.4903313e-04,  1.3614542e-04, -4.8883178e-04, -1.0375100e-03,
       -3.7187096e-04, -7.0279930e-05,  1.7563410e-03,  9.3390653e-04,
        6.1154069e-04,  1.2278924e-03, -9.6008799e-04,  4.4316440e-04,
       -8.2760735e-04, -1.4209718e-03, -8.9361088e-04,  3.9653596e-04,
       -8.0810452e-04,  1.5245139e-03,  1.4127232e-04, -5.5629964e-04,
       -4.8819493e-04, -1.0789160e-03,  1.5488314e-03,  7.9105666e-05,
       -3.7647790e-04,  1.5360849e-04,  4.3620451e-04, -9.9604856e-04,
        1.6819359e-03, -8.5621164e-04, -2.4824496e-03, -1.2439456e-04,
       -2.4751774e-03, -1.7941992e-04, -2.2318473e-04, -6.9799821e-04,
        1.5041090e-04,  4.3877523e-04,  1.0588188e-03,  6.8534503e-04,
       -7.1575021e-04,  3.5862564e-04, -6.7372061e-04, -8.4406871e-04,
        1.9000610e-03,  9.0398738e-05, -4.0639553e-04,  4.5919342e-06,
        1.4807687e-03,  3.7346603e-04, -4.8682085e-04,  1.0776157e-03,
       -4.8524284e-04, -6.7991590e-05,  4.2114225e-05, -1.8241210e-03,
        2.3154700e-03, -2.0654085e-04, -1.8094238e-03, -8.2797284e-05],
      dtype=float32), array([-1.97717850e-03,  1.06794038e-03,  1.63221057e-03,  1.00609590e-03,
        1.21149572e-03,  2.16881605e-03,  6.41819643e-05,  2.74197137e-05,
       -3.51208786e-04, -1.39353483e-03, -2.46665062e-04, -2.60655559e-03,
       -2.99354608e-04,  1.11231545e-03,  7.09066808e-04,  1.68768666e-03,
        1.32195966e-03, -1.33199221e-03,  1.61968323e-03, -2.31873197e-03,
       -2.18322990e-03, -2.47981632e-03,  1.72988768e-03, -1.68766826e-03,
       -2.51377397e-03,  7.95287546e-04,  8.67432464e-05, -1.02533995e-04,
        2.17112989e-04, -2.00313370e-04, -1.44728087e-03,  8.88913695e-04,
       -1.29461265e-03, -2.62443617e-04, -1.12125927e-04,  9.52379953e-04,
        2.17392575e-04, -1.73276546e-03,  1.54502294e-03, -2.88438797e-03,
       -7.41961587e-04,  5.20552967e-05,  5.36234933e-04,  1.05529674e-03,
        2.76008155e-03,  1.62389933e-03,  1.47845899e-03,  6.81324280e-04,
       -8.32949125e-04,  2.09312740e-04,  2.14526360e-03,  1.95972575e-03,
       -3.86595726e-04,  7.03332189e-04,  6.84460509e-04,  9.07739799e-04,
        8.17114778e-04,  1.33105856e-03,  5.84232737e-04, -7.82041228e-04,
       -2.58505018e-03,  9.34732961e-04, -1.51732448e-03,  2.18076209e-04,
       -1.22585986e-03, -6.21574232e-04, -1.26449484e-03, -1.19954220e-03,
        2.34014820e-03,  6.24008244e-04,  3.49503127e-04, -1.53334183e-03,
        6.23388187e-05,  4.32855450e-04, -2.60571670e-03,  7.89923943e-04,
       -6.63429324e-04, -1.74664217e-03,  1.10066496e-03, -1.69441826e-03,
        1.46350602e-03,  2.12616380e-03, -6.29943504e-04, -1.03500078e-03,
       -3.35322635e-04, -2.34865161e-04, -2.91707751e-04, -1.42909776e-04,
        1.32935692e-03,  2.58424494e-04,  2.60352797e-04,  5.12784172e-04,
        1.17721572e-03, -5.79769607e-04,  7.64514902e-04, -3.01209814e-03,
        2.25160504e-03, -3.54381424e-04,  1.46239705e-03, -1.68461629e-04],
      dtype=float32), array([-6.4285414e-04,  5.4930081e-04, -1.5827856e-05,  3.5022938e-04,
       -1.4894350e-03,  1.1286170e-03, -1.3638162e-03, -1.7921894e-04,
       -8.3171081e-04, -5.1269156e-04, -8.2459400e-04, -4.9549952e-04,
       -4.5472718e-04,  1.4742860e-03,  5.2094285e-05, -4.3145270e-04,
        1.7444571e-03, -1.2840836e-03,  1.7113429e-03, -5.2898913e-04,
        6.8469899e-04, -1.5040620e-03,  2.9587096e-03, -3.1600060e-04,
       -7.7253772e-04,  2.1807172e-03,  4.6084009e-05,  3.8853229e-04,
       -1.7623195e-03, -2.1169998e-04, -1.3619962e-03, -1.3790943e-03,
        2.3530822e-03,  1.1104767e-03, -2.2644834e-03,  1.3299357e-03,
        3.8919464e-04,  1.2048520e-05, -1.0110231e-03, -1.4308249e-03,
       -1.9718483e-03,  1.1195478e-03, -9.5536618e-04,  6.8854942e-04,
       -2.1403155e-03, -8.9926505e-04,  1.0316541e-03,  2.2091197e-03,
        1.6734380e-03,  1.4343533e-03, -7.9009635e-04,  1.3502847e-03,
       -3.5729175e-04,  3.0759507e-04,  4.9116754e-04, -1.5150176e-04,
       -2.0091076e-04,  1.4648681e-03,  2.8039390e-04, -6.6149834e-05,
       -2.4543405e-03, -9.8273566e-04,  1.6266285e-03,  4.5070628e-04,
        4.4045266e-04,  1.5619458e-03,  3.3581632e-04, -6.7698420e-05,
        1.2569915e-03, -4.1586388e-04, -1.2662364e-03, -1.8950826e-03,
       -1.1103000e-03, -3.8672006e-04, -1.6087446e-03,  9.1483223e-04,
        6.2192214e-04, -1.8114822e-03,  1.1355182e-03,  2.6022544e-04,
       -6.1819487e-04,  1.9862941e-03, -7.9043693e-04, -9.5258874e-05,
        8.5153402e-04,  1.3550089e-04,  1.3014094e-03, -7.2274014e-04,
       -2.8340411e-04, -1.8646504e-03, -1.4694691e-04,  1.8311780e-03,
       -1.5211394e-03,  1.0046440e-03, -1.4650482e-03, -3.9455236e-04,
        2.7007742e-03,  1.6043807e-04, -1.3116357e-04, -3.5633356e-04],
      dtype=float32), array([-1.4287570e-03,  5.8881473e-04, -5.1370607e-04, -1.8025137e-03,
        6.5973593e-04,  2.2262253e-03, -2.8105709e-03,  4.7881535e-04,
        4.4118048e-04,  1.3814236e-03,  1.9059014e-04, -7.5899356e-04,
        1.1673868e-03,  1.5848998e-03, -1.6042720e-04, -2.4937629e-04,
        1.9574263e-03, -2.3586296e-03,  1.6424770e-03,  7.3898968e-04,
       -1.6573317e-04,  1.6730612e-05,  1.9033375e-03,  1.6195551e-03,
        1.3369785e-03,  4.2762342e-04, -4.4707293e-05,  1.1517993e-03,
       -6.7175488e-04, -2.8214214e-04,  9.2299888e-04,  1.4784335e-03,
       -2.4156205e-04,  2.0233302e-04, -7.4922293e-04, -1.2815247e-03,
        6.7775883e-04, -4.7228803e-04, -6.1491970e-04, -5.9495040e-04,
       -1.7054754e-03, -4.1392693e-04,  6.3557428e-04, -6.7273522e-04,
       -2.0899023e-03,  6.8423577e-04,  1.0935754e-03, -4.6359844e-04,
       -1.9301420e-04,  1.4209363e-03, -5.2477606e-04,  8.8888552e-04,
       -1.9248751e-03,  8.0600096e-04,  1.4875829e-03, -3.2201922e-04,
       -9.2370849e-04,  6.1958842e-04,  2.3755312e-03, -2.1708100e-03,
       -1.5593563e-03, -9.7366085e-04,  5.8139609e-05, -2.1462815e-03,
        4.5034356e-04, -2.9797503e-04,  5.6330272e-04,  8.3395088e-04,
        2.2007097e-03, -3.4084340e-04,  4.8329076e-04, -8.3368260e-04,
       -3.3964546e-04,  1.2610954e-03, -1.1314356e-03,  3.9741423e-04,
        4.0691040e-04,  3.4033921e-05,  1.2981830e-03, -1.9938561e-04,
        5.6051649e-05,  1.0430880e-03, -1.9168798e-03, -1.4863374e-03,
        2.1764226e-04, -7.1590039e-04,  1.8928603e-03,  8.5094728e-04,
       -2.1328239e-03, -1.0389657e-03, -6.0309039e-04,  1.5857093e-03,
       -6.3216110e-04, -5.3361279e-04,  1.2019413e-04, -2.6686771e-03,
        1.5899452e-03,  1.4004828e-03, -7.9470006e-04, -1.0274132e-03],
      dtype=float32), array([ 9.82050784e-04,  3.36066558e-04,  1.06209936e-03, -1.18055602e-03,
       -2.53295206e-04,  1.16931624e-03, -7.57537957e-04, -2.94559170e-04,
       -9.57258220e-04, -3.41113977e-04,  9.67397064e-04, -1.07012282e-03,
        2.72746285e-04,  2.89439544e-04, -6.33092423e-04, -9.26692039e-04,
        3.77106451e-04, -4.12412919e-04,  1.27704945e-04, -2.44008334e-04,
        2.42024369e-04,  5.22806076e-04,  1.36053690e-03,  1.52278738e-03,
       -1.08607230e-03,  7.63708318e-04,  9.10253904e-04, -1.03344582e-03,
       -6.65914675e-04,  4.55194182e-04, -9.20493156e-04,  7.31428154e-04,
       -1.65533274e-05, -5.81338711e-04, -1.31113315e-03,  1.40064443e-03,
        5.09708247e-04,  9.01336025e-04,  6.20957289e-04, -2.17130335e-04,
       -5.32150967e-04, -1.19791192e-03,  3.53639451e-04,  3.89909866e-04,
       -9.25756583e-04,  1.19660166e-04,  6.03838998e-04,  3.92381153e-05,
       -4.32268396e-04,  3.87324370e-04, -1.37242081e-03, -2.13738080e-04,
        3.38446669e-04, -1.32894644e-03, -4.82905074e-04,  6.96551288e-05,
        9.25909786e-04, -1.65090896e-05, -6.74714800e-04, -2.07173685e-03,
       -1.26369053e-03,  1.22341607e-03,  2.09810154e-04, -2.88382551e-04,
       -3.65086977e-04,  3.04384215e-04,  7.79870839e-04,  9.60017860e-05,
        6.07346010e-04, -3.16619902e-04,  5.23308991e-04,  1.33725582e-04,
       -1.70416562e-04,  1.01099163e-03,  1.56772265e-03, -1.00814179e-03,
       -3.25321540e-04, -1.43875449e-03,  7.27878709e-04, -2.29077021e-04,
       -6.07211143e-04,  8.21545254e-04, -1.83416400e-04, -1.10596127e-03,
        1.51196684e-04,  1.00355782e-03, -5.82073408e-04, -1.94399036e-05,
        2.85893970e-04, -1.76241781e-04, -6.63862040e-04,  2.02921382e-03,
        9.44731000e-04, -2.66504154e-04,  2.49174103e-04, -1.48236600e-03,
       -3.76446784e-04,  1.00443349e-03,  2.06064098e-04, -1.62693486e-03],
      dtype=float32), array([ 4.26795072e-04,  2.02178746e-03, -8.89487856e-05, -2.04972108e-03,
        1.18539180e-03,  3.58763675e-04,  1.11104455e-04, -6.29477843e-04,
       -5.54978033e-04, -1.39940775e-03, -2.20213225e-03, -1.29208172e-04,
        7.73996639e-04,  3.02841770e-04, -2.35540117e-03,  1.09974397e-04,
       -1.41510472e-03, -7.71728170e-04, -3.53081385e-04, -1.45666592e-03,
       -1.66895494e-04, -9.99113079e-04,  1.06176070e-03,  9.59060446e-04,
        3.57547484e-04,  4.71166451e-04,  7.20802636e-04,  3.62392864e-04,
       -1.20404665e-03,  4.52508626e-04, -1.32553140e-03,  2.95821606e-04,
       -2.20875896e-04, -1.61963329e-03, -1.37270463e-03,  1.52142288e-03,
       -9.17484751e-04, -6.77133721e-05,  8.74156249e-04,  9.68364999e-04,
        1.48298801e-03, -1.17949431e-03, -8.64001398e-04, -1.07164285e-03,
        4.59195522e-04, -1.59907539e-03, -1.43622642e-03, -1.75445079e-04,
       -2.00377763e-04,  5.71582641e-04,  1.37575262e-03,  7.59107934e-04,
       -8.45290197e-04,  8.39119079e-04,  6.12121075e-04, -1.50986380e-04,
       -2.21270398e-04, -7.16037815e-04, -1.03282870e-03,  1.54830771e-03,
        7.98571215e-04,  3.87178152e-04,  7.27740116e-05,  1.08229730e-03,
        8.24113013e-05, -1.06630474e-03,  4.81022435e-05, -6.71415473e-04,
        1.05541712e-03, -1.54183630e-03, -9.03581822e-05, -1.63524179e-03,
       -1.69096550e-03,  8.50945013e-04,  5.26627700e-04, -6.58774807e-04,
        8.79616360e-04,  1.71870895e-04, -1.93975429e-04,  1.66146411e-03,
       -6.09915005e-04, -2.20191176e-03,  8.99497390e-05,  4.70250321e-04,
       -8.60210916e-04,  1.80272781e-03, -9.42435290e-05, -3.94669987e-05,
       -4.42024262e-04, -1.63229310e-03,  1.77186143e-04, -1.94709538e-03,
       -1.95343237e-05,  1.06009706e-04, -1.25354913e-04, -1.10940030e-03,
       -1.76546106e-03,  7.33127701e-04, -1.32670871e-03, -5.49853547e-04],
      dtype=float32), array([ 7.0610770e-04,  6.6922436e-04,  5.1313039e-04,  1.4371614e-03,
        1.1017779e-03,  7.8606216e-04,  8.2855951e-04, -1.2547229e-03,
        9.1671944e-05,  1.9378634e-04,  1.5358827e-03, -7.9800683e-04,
       -6.0806965e-04, -1.8653183e-04, -5.4703630e-04,  1.2252218e-03,
       -4.7398210e-04, -1.5766943e-03, -4.0414985e-04, -3.9896634e-04,
       -1.0609028e-03,  2.1250504e-04, -5.2460044e-04,  1.2824871e-04,
        9.3416142e-04,  5.8223552e-05, -1.4579695e-04, -5.6672218e-04,
       -1.0311294e-03, -1.0000740e-03, -1.4290399e-03,  1.2026051e-03,
       -1.2344237e-03,  1.5593219e-03, -1.7485304e-03,  1.1131466e-04,
       -9.0324396e-04,  7.8232493e-04, -7.0879038e-04, -3.3446302e-04,
        2.4389783e-04,  1.8033008e-04, -3.5551935e-04,  6.9913061e-05,
       -2.2082217e-03,  1.1315256e-03, -9.1232237e-04,  7.9956837e-04,
        9.4825996e-04,  5.6834647e-04,  2.0114938e-05,  4.3322044e-04,
        6.6899613e-04, -1.2353946e-03, -2.8064111e-04, -6.2456261e-04,
       -5.4240070e-04,  3.9616093e-04, -1.4969304e-03, -1.4873191e-03,
       -4.1781279e-04,  5.7014957e-04,  7.7810633e-04, -6.7149010e-04,
        1.3672838e-03, -1.3328211e-04,  2.1129090e-03,  4.3155905e-04,
        2.6309467e-04,  2.8741272e-04, -8.8180928e-04,  2.0556671e-04,
       -1.8729717e-03,  4.3946371e-04, -4.2729895e-04, -6.1837054e-04,
       -1.3138642e-04,  1.9654454e-04,  1.6729888e-03,  1.1096098e-03,
        1.8453527e-03,  1.2558806e-03, -3.0058483e-04, -4.4562071e-04,
        1.3672681e-04,  1.2511418e-03,  2.8564822e-04, -6.0944742e-04,
       -1.4461173e-03,  1.5926585e-03,  3.0487479e-04,  8.5361226e-04,
       -5.5353750e-05, -2.1503572e-04, -1.5010077e-03, -1.9242994e-04,
       -1.3860471e-03,  3.5943516e-04,  1.8995525e-03, -3.2503314e-05],
      dtype=float32), array([-1.7260054e-04,  8.9901092e-04, -1.3593535e-04,  8.8067289e-04,
       -9.3473296e-04, -1.0944197e-03,  2.9471883e-04,  8.5740723e-04,
       -1.5683618e-03,  3.6424460e-04,  1.4596018e-03, -3.3426962e-03,
       -1.6656984e-05,  7.3840114e-04, -7.9077174e-04,  5.0060975e-04,
        1.3328772e-03, -1.7724845e-03,  6.2650250e-04, -9.5336029e-04,
       -1.2195609e-03, -3.6775874e-04,  1.0536039e-03, -7.7490369e-04,
        1.1037383e-03, -3.6682981e-05,  8.0537793e-05, -9.3331758e-04,
        8.6658448e-04,  1.1256412e-03, -3.1655829e-04,  5.8159686e-04,
       -1.4322103e-03, -1.4172011e-05, -1.7006420e-04,  8.0542982e-04,
       -8.2212669e-04,  6.5060813e-05,  1.6879871e-03, -5.1797595e-04,
        4.4997601e-04,  6.9206039e-04, -2.1707918e-04,  4.0976255e-04,
       -3.7716905e-04,  1.8387958e-03,  2.1063376e-04,  1.1296760e-03,
       -2.0899046e-04,  3.5874115e-04,  8.7334344e-04, -1.6727025e-04,
       -1.0959745e-03, -3.8215636e-05, -5.9909315e-04,  1.4368539e-03,
       -2.6762090e-03,  1.1584613e-03, -9.4572594e-04, -6.8546657e-04,
       -9.2403439e-04,  2.1380140e-03,  6.1718549e-04, -1.5965765e-03,
        9.8280303e-05, -3.8294613e-04, -6.1430311e-04,  4.7756516e-04,
        7.2613632e-04,  4.0727024e-04, -9.6459745e-04, -1.9098418e-03,
       -2.3575572e-03,  1.7248001e-04,  9.4327901e-04,  1.5050683e-03,
       -9.0249509e-05, -1.2836497e-03, -8.2792324e-04,  1.1391442e-03,
       -3.1867292e-04,  2.1100643e-03, -2.0649645e-04, -4.2475491e-05,
        1.3533676e-03,  5.2593707e-04, -1.3898561e-03, -7.6009787e-04,
       -1.1590270e-03, -3.5107770e-04,  3.4271792e-04,  1.1239488e-03,
        1.7153491e-04,  1.0634636e-03,  9.5508975e-04, -1.1868986e-03,
        7.7273510e-04,  2.5153425e-04, -2.9719991e-04, -1.1618852e-03],
      dtype=float32), array([ 9.82050784e-04,  3.36066558e-04,  1.06209936e-03, -1.18055602e-03,
       -2.53295206e-04,  1.16931624e-03, -7.57537957e-04, -2.94559170e-04,
       -9.57258220e-04, -3.41113977e-04,  9.67397064e-04, -1.07012282e-03,
        2.72746285e-04,  2.89439544e-04, -6.33092423e-04, -9.26692039e-04,
        3.77106451e-04, -4.12412919e-04,  1.27704945e-04, -2.44008334e-04,
        2.42024369e-04,  5.22806076e-04,  1.36053690e-03,  1.52278738e-03,
       -1.08607230e-03,  7.63708318e-04,  9.10253904e-04, -1.03344582e-03,
       -6.65914675e-04,  4.55194182e-04, -9.20493156e-04,  7.31428154e-04,
       -1.65533274e-05, -5.81338711e-04, -1.31113315e-03,  1.40064443e-03,
        5.09708247e-04,  9.01336025e-04,  6.20957289e-04, -2.17130335e-04,
       -5.32150967e-04, -1.19791192e-03,  3.53639451e-04,  3.89909866e-04,
       -9.25756583e-04,  1.19660166e-04,  6.03838998e-04,  3.92381153e-05,
       -4.32268396e-04,  3.87324370e-04, -1.37242081e-03, -2.13738080e-04,
        3.38446669e-04, -1.32894644e-03, -4.82905074e-04,  6.96551288e-05,
        9.25909786e-04, -1.65090896e-05, -6.74714800e-04, -2.07173685e-03,
       -1.26369053e-03,  1.22341607e-03,  2.09810154e-04, -2.88382551e-04,
       -3.65086977e-04,  3.04384215e-04,  7.79870839e-04,  9.60017860e-05,
        6.07346010e-04, -3.16619902e-04,  5.23308991e-04,  1.33725582e-04,
       -1.70416562e-04,  1.01099163e-03,  1.56772265e-03, -1.00814179e-03,
       -3.25321540e-04, -1.43875449e-03,  7.27878709e-04, -2.29077021e-04,
       -6.07211143e-04,  8.21545254e-04, -1.83416400e-04, -1.10596127e-03,
        1.51196684e-04,  1.00355782e-03, -5.82073408e-04, -1.94399036e-05,
        2.85893970e-04, -1.76241781e-04, -6.63862040e-04,  2.02921382e-03,
        9.44731000e-04, -2.66504154e-04,  2.49174103e-04, -1.48236600e-03,
       -3.76446784e-04,  1.00443349e-03,  2.06064098e-04, -1.62693486e-03],
      dtype=float32), array([ 4.26795072e-04,  2.02178746e-03, -8.89487856e-05, -2.04972108e-03,
        1.18539180e-03,  3.58763675e-04,  1.11104455e-04, -6.29477843e-04,
       -5.54978033e-04, -1.39940775e-03, -2.20213225e-03, -1.29208172e-04,
        7.73996639e-04,  3.02841770e-04, -2.35540117e-03,  1.09974397e-04,
       -1.41510472e-03, -7.71728170e-04, -3.53081385e-04, -1.45666592e-03,
       -1.66895494e-04, -9.99113079e-04,  1.06176070e-03,  9.59060446e-04,
        3.57547484e-04,  4.71166451e-04,  7.20802636e-04,  3.62392864e-04,
       -1.20404665e-03,  4.52508626e-04, -1.32553140e-03,  2.95821606e-04,
       -2.20875896e-04, -1.61963329e-03, -1.37270463e-03,  1.52142288e-03,
       -9.17484751e-04, -6.77133721e-05,  8.74156249e-04,  9.68364999e-04,
        1.48298801e-03, -1.17949431e-03, -8.64001398e-04, -1.07164285e-03,
        4.59195522e-04, -1.59907539e-03, -1.43622642e-03, -1.75445079e-04,
       -2.00377763e-04,  5.71582641e-04,  1.37575262e-03,  7.59107934e-04,
       -8.45290197e-04,  8.39119079e-04,  6.12121075e-04, -1.50986380e-04,
       -2.21270398e-04, -7.16037815e-04, -1.03282870e-03,  1.54830771e-03,
        7.98571215e-04,  3.87178152e-04,  7.27740116e-05,  1.08229730e-03,
        8.24113013e-05, -1.06630474e-03,  4.81022435e-05, -6.71415473e-04,
        1.05541712e-03, -1.54183630e-03, -9.03581822e-05, -1.63524179e-03,
       -1.69096550e-03,  8.50945013e-04,  5.26627700e-04, -6.58774807e-04,
        8.79616360e-04,  1.71870895e-04, -1.93975429e-04,  1.66146411e-03,
       -6.09915005e-04, -2.20191176e-03,  8.99497390e-05,  4.70250321e-04,
       -8.60210916e-04,  1.80272781e-03, -9.42435290e-05, -3.94669987e-05,
       -4.42024262e-04, -1.63229310e-03,  1.77186143e-04, -1.94709538e-03,
       -1.95343237e-05,  1.06009706e-04, -1.25354913e-04, -1.10940030e-03,
       -1.76546106e-03,  7.33127701e-04, -1.32670871e-03, -5.49853547e-04],
      dtype=float32), array([-4.7332846e-04,  1.7717301e-03,  8.9942076e-04, -3.4099305e-04,
       -8.2140398e-04,  1.6944837e-03, -4.5484159e-04, -2.6937289e-04,
        8.5195631e-04,  4.3486734e-04,  3.6895447e-04, -8.9188293e-04,
       -5.5322994e-04,  1.4424596e-03, -1.3115156e-03,  2.0529477e-04,
        9.1006450e-04,  2.5866154e-04,  7.4126081e-05, -2.2913818e-04,
        1.5661214e-03,  8.6047733e-04,  1.6968437e-03,  1.9589627e-04,
        2.2049856e-03,  1.3383491e-03, -5.9544115e-04,  2.9477789e-05,
       -1.1848459e-03,  8.0417731e-04, -1.7971162e-03,  7.3860493e-04,
       -1.8314571e-03, -1.7003759e-03,  1.9601986e-03,  1.9303773e-03,
       -2.8527060e-03,  6.9196790e-04,  2.1803088e-03, -7.3986093e-04,
       -6.6245015e-04, -4.9534079e-04, -6.3410151e-04,  3.5951001e-04,
       -1.5167251e-03,  2.1111616e-03,  1.9872917e-03,  4.9992488e-04,
        6.4105849e-04,  9.8093413e-05,  4.4447769e-04, -1.1284684e-03,
       -1.3908733e-03,  1.2614325e-04,  4.9228768e-04,  1.1844846e-03,
       -1.1151604e-03, -1.3264807e-04, -9.3428098e-04, -1.6022114e-03,
       -6.9650594e-04,  1.5334740e-03,  1.8776853e-03, -2.2203752e-03,
        9.8901230e-04, -8.4522861e-04,  4.5045977e-04,  1.0032615e-03,
        5.8406842e-04,  9.3604811e-04, -1.2778301e-03,  2.3693239e-04,
        2.9750368e-05,  5.7620631e-04, -8.2283572e-04, -5.3439511e-04,
       -7.6664222e-04, -2.3605049e-04, -2.6736921e-04,  9.4777171e-04,
       -1.5718716e-03,  1.7476446e-03, -1.8697341e-03, -1.0589494e-03,
        4.9635634e-04,  2.4595172e-03,  1.7088285e-03,  1.5472005e-03,
       -9.2920224e-04, -6.6468271e-04, -1.1459433e-03,  1.2128989e-03,
       -3.9722017e-04,  1.1537580e-03, -4.0779941e-04, -1.7374781e-03,
        1.6256095e-03,  2.3027069e-03, -1.2556935e-03, -1.7416326e-03],
      dtype=float32), array([-2.0692600e-03, -7.4760988e-04, -1.7078570e-05,  2.2745715e-05,
       -1.7981927e-04,  6.5202184e-04, -1.2709841e-03,  4.6415994e-04,
        1.1690905e-03,  5.3309434e-04,  1.0032194e-03, -1.9267109e-05,
       -5.4043445e-05, -7.2074053e-04,  8.6167699e-04,  1.0770031e-03,
        3.0228077e-05, -1.6121811e-03,  1.1801161e-03, -7.8495953e-04,
       -3.1425941e-04,  1.5291149e-03,  1.1227683e-03,  2.0441189e-03,
        1.6609480e-03,  1.1881208e-03, -7.9348328e-04, -1.2225499e-04,
       -2.6484934e-04, -1.8076685e-03, -2.2061188e-03,  1.8439190e-04,
       -2.1866072e-04, -4.2253430e-04,  1.1107451e-03,  1.4242515e-03,
       -1.0341319e-03,  1.3059555e-03,  9.5328595e-04, -8.0309204e-05,
       -7.4996258e-04, -5.9495511e-04, -5.5840152e-05,  1.7873138e-03,
       -1.3409309e-03,  1.9029975e-03,  3.4421706e-04,  7.2930020e-04,
       -3.7410174e-04, -4.3163913e-05,  5.7820696e-04,  1.7911327e-04,
       -1.0633415e-03, -1.9512136e-04, -9.3520124e-04,  2.9097291e-04,
       -1.9610317e-03,  2.9788134e-04, -2.4619984e-04, -5.1223411e-04,
        1.3456002e-04,  9.2200842e-04,  6.2559568e-04, -8.6943433e-04,
        9.3466480e-04, -2.3239390e-04, -3.1468979e-04,  1.6319685e-04,
        8.3801773e-04,  9.9777768e-04, -9.2144526e-04, -7.1758433e-04,
        3.5711000e-04,  1.3116482e-03, -5.4788520e-04, -4.3700688e-04,
        6.5357221e-04,  3.8941897e-04,  2.8299779e-04,  1.2361662e-03,
        3.7926948e-05,  1.8386164e-03, -2.1933788e-03,  1.2749715e-03,
        2.7232297e-04,  3.2140694e-03, -2.1556570e-04,  2.3204721e-04,
       -5.4029620e-04,  1.5979081e-04, -7.9717685e-04, -1.4605699e-04,
       -1.0003333e-03, -6.4858492e-04, -1.2915352e-03, -1.4950036e-03,
        1.6422421e-03,  7.8001776e-04, -6.0539588e-04, -1.7907744e-03],
      dtype=float32), array([ 0.00071065,  0.00108619,  0.00151699,  0.00159475,  0.00190335,
       -0.00127669,  0.00024745, -0.00054251,  0.00177654,  0.00318142,
        0.00128523, -0.00131702,  0.0011842 ,  0.00115516,  0.00017321,
        0.00010509, -0.00098876,  0.00016643, -0.00012304,  0.00028237,
        0.00184111, -0.00028979, -0.00185701,  0.00024908, -0.00220859,
        0.0026613 , -0.001506  , -0.00018974, -0.00060307, -0.00194064,
        0.00120805,  0.00264024,  0.00026909,  0.0029455 , -0.00162119,
       -0.00059811, -0.00017451,  0.00352519,  0.00411314, -0.00177802,
        0.00208394, -0.00099776,  0.00109307, -0.00054607,  0.00178573,
        0.00086509,  0.00131497,  0.00134162,  0.00196725,  0.00147803,
        0.0015467 , -0.00159413,  0.00014669,  0.00090126,  0.00160611,
        0.00191482, -0.0006951 , -0.00113352, -0.00222309, -0.00042227,
       -0.00085834,  0.00193393, -0.00139214,  0.00242558, -0.00025363,
       -0.00121669, -0.00258419,  0.00060924,  0.00039804, -0.00181875,
       -0.00044783,  0.00030411,  0.00094987, -0.0008957 ,  0.00065546,
       -0.00268188, -0.00252875,  0.00156733,  0.00063101,  0.00025301,
       -0.00089191,  0.00111524,  0.00068903, -0.00019131,  0.00071858,
       -0.00215797,  0.00043982, -0.00024406, -0.00187355,  0.00095571,
       -0.00038416,  0.00110558, -0.00027719, -0.00011175,  0.00191881,
        0.001515  , -0.00130582,  0.00200305, -0.00032363, -0.00151384],
      dtype=float32), array([-9.9474669e-04,  1.4685967e-03, -4.5927009e-04, -5.7280110e-04,
       -2.7398060e-03,  1.0035114e-03, -1.8858016e-03,  1.4391191e-03,
       -2.3395352e-03,  5.4195506e-04,  6.9570605e-04, -2.1804147e-03,
       -4.6220823e-04, -1.4032570e-03,  4.5767435e-04, -4.0136371e-04,
        8.2617550e-04, -2.0446689e-03, -1.7926865e-05, -1.1614915e-03,
       -1.5411286e-03,  1.9191280e-04,  9.8613463e-04, -3.0721654e-04,
        3.1088120e-03,  7.1376294e-04, -3.6633882e-04, -7.2278321e-04,
        6.3631102e-04,  1.2052048e-03, -3.8216036e-04,  1.5138183e-04,
       -4.6043587e-04, -1.9597192e-03,  1.1235115e-03,  1.7209884e-03,
       -2.2051329e-04, -9.3877700e-04,  1.9198395e-03, -2.1579459e-03,
        3.3159400e-04, -3.3309684e-06, -3.9175322e-04, -8.7828841e-04,
       -2.9462669e-04,  1.0445236e-03,  6.4631290e-04,  1.6814389e-03,
       -6.8493991e-04,  1.2529802e-03,  1.3257897e-03, -2.4250462e-03,
       -1.5011948e-03, -1.3758181e-04,  2.1526279e-04,  1.4886115e-04,
       -2.5549522e-03, -8.3456631e-05, -2.3284517e-03, -4.6041823e-04,
        1.1944162e-03, -2.2694003e-05,  1.0171485e-03, -8.5642247e-04,
       -1.2809013e-03, -1.1142467e-03, -1.3681718e-03,  2.6870513e-04,
        1.4064732e-03,  1.7605679e-03, -6.2044582e-04, -1.9232942e-03,
       -2.4585023e-03, -1.1071335e-03,  1.2302040e-03,  1.7265480e-03,
       -7.0306100e-04, -8.6317741e-04, -4.9470912e-04,  2.3015938e-03,
       -5.7899108e-04,  1.6294677e-03, -1.5057388e-03, -1.0581745e-03,
        2.0841598e-03, -6.9511030e-04, -1.0494569e-03,  5.8667257e-04,
       -9.2051167e-04, -3.2107993e-03, -5.7016098e-04,  2.9413606e-04,
        1.0799296e-03,  3.2747171e-03, -1.7894830e-03, -1.1449202e-03,
        3.3215950e-03,  1.8325361e-03, -1.0467602e-03, -1.3146593e-03],
      dtype=float32), array([ 1.7990950e-03,  3.1238870e-04, -1.0699215e-03,  2.3183855e-03,
       -9.8387781e-04, -1.3178969e-03,  1.9406527e-03, -2.5568582e-04,
        9.9713405e-05,  1.5284031e-03,  7.6794636e-04, -3.2520304e-03,
        1.0216213e-04,  1.2910374e-03, -2.5190185e-03,  2.1901203e-03,
        9.8848366e-04, -2.1180499e-03, -2.6944146e-04, -2.1545374e-04,
        6.6320249e-04,  9.6360382e-05,  2.7991668e-04, -1.7694409e-03,
       -1.8745218e-03, -2.3779261e-04,  2.9458839e-04, -2.5984802e-05,
        1.3780373e-03, -1.3846609e-04,  1.0754303e-03,  1.7540634e-03,
       -1.1552428e-04,  2.7192954e-03, -2.1493211e-03,  1.8058947e-04,
       -8.0887997e-04,  1.5917219e-03,  1.4121688e-03, -2.1406900e-04,
       -1.2179385e-03,  1.0698901e-03, -1.4358873e-03,  4.1046162e-04,
       -3.1475886e-04,  1.3346798e-03, -5.4364611e-04,  2.3137676e-04,
        3.1950275e-04, -1.2148989e-03,  1.2331731e-03,  7.8303722e-04,
        1.0564376e-04,  6.7560078e-04, -2.3173180e-03,  1.8100394e-03,
       -1.7270009e-03,  2.1462336e-03,  9.5135794e-04, -1.5602328e-03,
       -3.1900327e-03,  3.0179906e-03, -2.1851296e-04, -1.9183363e-03,
        1.8712496e-03, -2.8551964e-05, -1.4276482e-03, -1.1059360e-03,
       -5.3062767e-04, -9.8934106e-05, -2.2563525e-03, -2.5987476e-03,
       -3.3632896e-04,  2.2701622e-04, -7.8650622e-04,  1.7934411e-03,
        1.9411731e-03,  1.7742201e-04, -2.1075653e-03,  9.1376109e-04,
        7.4530850e-05,  2.8602409e-03,  1.4799583e-04,  1.0534944e-03,
        4.3220882e-04,  8.3385804e-04, -3.2207500e-03, -2.0279388e-03,
       -1.5649460e-03,  1.4839087e-03,  1.6090462e-03,  1.3996374e-03,
       -1.1210656e-03,  8.3694101e-04,  2.3559313e-03, -6.4791951e-05,
       -1.2346001e-03, -9.4364549e-04,  7.0026482e-04, -2.9547006e-04],
      dtype=float32)]
========================
M1 [[ 0.00118056  0.00279707  0.00225303 ... -0.00109957 -0.00081351
  -0.00433811]
 [-0.00246354  0.00272623  0.00312691 ... -0.00149858 -0.00459842
  -0.00254246]
 [-0.00395027  0.00477586 -0.00050412 ...  0.00317895  0.00121495
   0.004839  ]
 ...
 [ 0.00180444  0.00041118 -0.00375548 ...  0.00171319  0.00012939
  -0.00124377]
 [ 0.00498109 -0.00159927 -0.00068971 ...  0.00196522 -0.00491893
  -0.00171363]
 [ 0.00353733  0.00404752 -0.00048727 ...  0.00383408 -0.00215413
  -0.00459744]]
========================
M2 0.05615603
========================
M3 [('darling,', 0.2581336796283722), ('own', 0.24816378951072693), ('kiss', 0.23178964853286743), ('an', 0.22168555855751038), ('and', 0.209524467587471)]
M3 [('fighting', 0.23227933049201965), ('favorite', 0.20918437838554382), ('knew', 0.20783375203609467), ('listening', 0.19048994779586792), ('don', 0.18378692865371704)]
========================
M4 [ 4.9810871e-03 -1.5992720e-03 -6.8971294e-04  2.7199538e-04
  3.2158832e-03 -1.5874968e-03 -3.3039399e-03 -4.3121362e-03
 -1.7924276e-03 -3.5487425e-03 -2.1587727e-03  4.3853000e-03
  3.2107648e-03  2.6025337e-03 -2.7457057e-03  1.9612599e-03
 -4.3835831e-03  3.4664781e-06 -4.3033981e-03 -4.9455832e-03
  1.4325888e-03  1.7637741e-03  4.5743911e-03  1.4088972e-03
 -3.8401121e-03  1.6071961e-03 -7.8895892e-04 -3.8729332e-04
 -5.2585150e-04 -4.0566535e-03 -3.2397202e-05  2.4378200e-03
  1.3407277e-03 -3.9278390e-03 -2.5475814e-05  7.6920958e-04
 -1.7799124e-03  1.9385909e-03 -2.1103800e-03  2.6835992e-03
  4.6362476e-03 -2.5582262e-03  1.1579208e-03 -4.7697774e-03
 -5.2527746e-04 -4.5748479e-03  1.2820732e-03 -3.9400309e-03
  3.0829452e-04 -3.9669004e-04 -4.9669882e-03  2.1391578e-03
  3.9645671e-03  3.2292265e-03  4.6917554e-03  1.4263805e-03
  4.0415954e-04 -2.8812233e-03  2.9825775e-03 -4.2250249e-04
  1.4864817e-03 -1.5413170e-03 -4.9961857e-03 -1.7720149e-03
 -4.1022170e-03 -1.6203673e-03  1.0463219e-03  3.2891621e-04
  2.3254456e-03 -4.7491295e-03  3.5572497e-03 -2.2170255e-03
  6.1826658e-04  1.4243551e-03  3.5178822e-03 -5.0207414e-04
  1.6611977e-03 -1.2997728e-03  3.3275324e-03  2.1718091e-03
 -3.8878850e-03 -2.7397650e-04  1.2540815e-03  1.5279049e-03
 -4.0961333e-04  2.6065740e-03  1.9847811e-04 -1.3397717e-03
  4.6397359e-03  1.7348821e-04 -2.9201168e-03 -3.4679105e-03
 -4.7748988e-03 -4.8015965e-03  1.5895989e-03  1.3396266e-04
 -2.5384482e-03  1.9652154e-03 -4.9189329e-03 -1.7136275e-03]
========================
M5 ['all', 'listening', 'just', 'looks', 'follow', 'still', 'children', 'perfect', 'slow', 'to', 'faith', 'hope', 'do', 'someone', 'song', 'underneath', 'know', 'kiss', 'not', 'now', 'she', 'found', 'knowing', 'right', 'see', 'are', 'our', 'girl', 'what', 'said', 'for', 'shares', 'looking', 'I', 'waiting', 'future', 'between', 'darling', 'cause', 'whispered', 'be', 'we', 'never', 'met', 'on', 'kids', 'secrets', 'of', 'favorite', 'against', 'and', 'own', 'love', 'someday', 'sweet', 'carry', 'your', 'dress,', 'dreams,', 'her', 'love,', 'arms', 'breath', "we're", 'was', 'baby,', 'more', 'eyes', 'that', 'am', 'but', 'it', 'darling,', 'hold', 'with', 'than', 'me', 'look', 'this', 'up', 'will', 'girl,', 'were', 'my', 'beautiful', 'heart', 'angel', 'give', 'stronger', 'is', 'share', 'mine', 'an', 'tonight', 'heard', 'woman', 'have', 'in', 'saw', 'dancing', 'deserve', 'when', 'holding', 'you', 'barefoot', 'mess', 'dive', 'knew', 'hand', 'grass,', 'fell', 'dark,', 'man', 'a', 'dark', 'don', 'lead', 'home', 'odds', 'well', 'fighting', 'looked', 'person', 'so', 'time', 'alright', 'the', 'anyone']
========================
M6 128
X shape (35, 100)
Assigned into 2  clusters: [1, 1, 1, 1, 0, 1, 0, 0, 1, 1, 1, 0, 1, 1, 1, 0, 1, 0, 1, 0, 1, 1, 1, 1, 1, 0, 1, 1, 1, 0, 1, 1, 1, 0, 1]
35
1:['I', 'found', 'a', 'love', 'for', 'me']
1:['darling', 'just', 'dive', 'right', 'in']
1:['and', 'follow', 'my', 'lead']
1:['well', 'I', 'found', 'a', 'girl', 'beautiful', 'and', 'sweet']
0:['I', 'never', 'knew', 'you', 'were', 'the', 'someone', 'waiting', 'for', 'me']
1:['cause', 'we', 'were', 'just', 'kids', 'when', 'we', 'fell', 'in', 'love']
0:['not', 'knowing', 'what', 'it', 'was']
0:['I', 'will', 'not', 'give', 'you', 'up', 'this', 'time']
1:['but', 'darling,', 'just', 'kiss', 'me', 'slow', 'your', 'heart', 'is', 'all', 'I', 'own']
1:['and', 'in', 'your', 'eyes', 'you', 'are', 'holding', 'mine']
1:['baby,', 'I', 'am', 'dancing', 'in', 'the', 'dark', 'with', 'you', 'between', 'my', 'arms']
0:['barefoot', 'on', 'the', 'grass,', 'listening', 'to', 'our', 'favorite', 'song']
1:['when', 'you', 'said', 'you', 'looked', 'a', 'mess', 'I', 'whispered', 'underneath', 'my', 'breath']
1:['but', 'you', 'heard', 'it', 'darling', 'you', 'look', 'perfect', 'tonight']
1:['well', 'I', 'found', 'a', 'woman', 'stronger', 'than', 'anyone', 'I', 'know']
0:['she', 'shares', 'my', 'dreams,', 'I', 'hope', 'that', 'someday', 'I', 'will', 'share', 'her', 'home']
1:['I', 'found', 'a', 'love,', 'to', 'carry', 'more', 'than', 'just', 'my', 'secrets']
0:['to', 'carry', 'love,', 'to', 'carry', 'children', 'of', 'our', 'own']
1:['we', 'are', 'still', 'kids', 'but', "we're", 'so', 'in', 'love']
0:['fighting', 'against', 'all', 'odds']
1:['I', 'know', 'we', 'will', 'be', 'alright', 'this', 'time']
1:['darling,', 'just', 'hold', 'my', 'hand']
1:['be', 'my', 'girl,', 'I', 'will', 'be', 'your', 'man']
1:['I', 'see', 'my', 'future', 'in', 'your', 'eyes']
1:['baby,', 'I', 'am', 'dancing', 'in', 'the', 'dark,', 'with', 'you', 'between', 'my', 'arms']
0:['barefoot', 'on', 'the', 'grass,', 'listening', 'to', 'our', 'favorite', 'song']
1:['when', 'I', 'saw', 'you', 'in', 'that', 'dress,', 'looking', 'so', 'beautiful']
1:['I', 'don', 'not', 'deserve', 'this', 'darling,', 'you', 'look', 'perfect', 'tonight']
1:['baby,', 'I', 'am', 'dancing', 'in', 'the', 'dark,', 'with', 'you', 'between', 'my', 'arms']
0:['barefoot', 'on', 'the', 'grass,', 'listening', 'to', 'our', 'favorite', 'song']
1:['I', 'have', 'faith', 'in', 'what', 'I', 'see']
1:['now', 'I', 'know', 'I', 'have', 'met', 'an', 'angel', 'in', 'person']
1:['and', 'she', 'looks', 'perfect']
0:['I', 'do', 'not', 'deserve', 'this']
1:['you', 'look', 'perfect', 'tonight']
Cluster id labels for inputted data
[1 1 1 1 0 1 0 1 1 1 1 0 1 1 1 1 1 1 1 0 1 1 1 1 1 0 1 1 1 0 1 1 0 1 1]
Centroids data
[[ 9.26732817e-05  1.50532281e-03  5.57756382e-04 -5.12174071e-04
   2.58989196e-04  3.88684358e-04 -3.72933748e-04 -6.13788754e-04
  -1.09342123e-04 -2.94312718e-04 -5.09435336e-04 -1.34732620e-04
  -5.04274337e-05  6.90118493e-04 -1.32101962e-03  9.47839534e-05
  -1.05000801e-03 -4.88558942e-04 -2.20287986e-04 -6.52099951e-04
   9.24667007e-05 -9.89430233e-05  4.24119255e-04  4.95410782e-04
  -1.73794284e-04  8.53307916e-04 -1.30790682e-04 -6.92289697e-06
  -5.63321693e-04 -1.20418745e-04 -4.28167401e-04  7.00907852e-04
  -1.10268672e-04 -8.22740017e-04 -5.66096652e-04  6.27005843e-04
  -3.52345234e-04  2.29968863e-04  7.09842128e-04 -2.15802999e-04
   1.04518904e-03 -9.02656929e-04 -7.80981525e-04 -5.78805438e-04
   9.01667227e-04 -8.15378610e-04 -1.01319036e-04  7.02570328e-04
  -1.09398083e-04  3.89881232e-05  3.26364549e-04  1.71616106e-04
  -2.70608869e-04  1.08532798e-03  4.39243424e-04  1.70537828e-04
   1.88847896e-05 -2.24284530e-04 -1.18508022e-03  4.03993027e-04
   2.55284640e-04  4.83415896e-04 -5.22776636e-04  6.99448782e-04
   5.08579328e-04 -6.29134044e-04 -3.68705591e-04 -9.69331366e-05
   3.06973654e-04 -7.55383531e-04  1.11278495e-04 -8.53937003e-04
  -7.75427907e-04  7.28158786e-04  1.21405248e-04 -1.04683373e-03
   2.04411994e-04  2.71047287e-04  3.68966846e-05  8.78611641e-04
  -5.33748907e-04 -8.80997973e-04  3.79628005e-04  3.59645313e-04
   4.53919181e-05  8.65089857e-04  8.18868222e-05  1.04849583e-04
  -3.64570671e-05 -1.07566486e-03  4.57378032e-04 -1.17593902e-03
  -1.49993237e-04  4.13132334e-04  3.22547047e-04 -8.47715236e-04
  -8.60771407e-04  4.67663556e-04 -2.85519085e-04 -1.06924014e-04]
 [-1.29851277e-05  8.49129916e-04  1.64117421e-04  1.63470028e-04
  -3.58677595e-04  7.08316601e-04 -4.60297085e-04  2.65406703e-05
   1.08711728e-04  5.18630994e-04  4.41157691e-04 -1.32186071e-03
  -2.97147866e-04  2.30444570e-04  1.38419157e-04  3.90743110e-04
   4.01367446e-04 -1.23770481e-03  4.69887835e-04 -4.58726503e-04
  -5.01910557e-04  8.27469551e-06  5.99731943e-04  7.92550186e-04
   1.23256122e-04  4.60609097e-04  1.45409007e-04 -1.79226223e-04
  -3.96575450e-04  6.42392167e-06 -1.01456766e-03  4.45906790e-04
  -7.01602378e-04  1.66047875e-04 -4.99836091e-04  7.74862825e-04
   1.10443229e-04  3.47263639e-04  5.10776009e-04 -5.55457271e-04
  -5.31247632e-04 -1.20056219e-04 -3.15625829e-04  2.94821438e-04
  -7.41330123e-04  6.61944289e-04  8.79941785e-04  7.39103374e-04
   3.91684641e-04  4.63019449e-04 -3.43764497e-05  2.25618419e-04
  -4.51217105e-04 -1.74637851e-04 -4.73294785e-05  6.30456111e-04
  -3.54199921e-04  5.30289627e-04 -9.09467916e-05 -7.89478278e-04
  -1.09841928e-03  7.06284053e-04  5.28839124e-04 -6.88174554e-04
   3.79551601e-04 -5.62846518e-05  2.20941209e-07  1.07847417e-04
   8.45373271e-04 -3.75172113e-04 -3.13600752e-04 -5.79652994e-04
  -8.10686577e-04  4.45754170e-04 -5.23016246e-04  3.71769593e-04
   1.44350480e-05 -2.54888848e-04  1.76582907e-04  3.53106832e-04
   2.61813919e-05  1.20319302e-03 -7.49932706e-04 -5.83422802e-04
   5.00309387e-04  5.00193235e-04 -2.30047525e-04 -9.78771927e-05
   3.18164748e-05 -6.12924982e-05 -4.55846378e-04  9.79483936e-04
   1.76112017e-04  2.98668084e-04 -2.32227451e-04 -1.12623799e-03
   7.00612718e-04  6.29070241e-04  6.76384638e-05 -6.96505906e-04]]
Score (Opposite of the value of X on the K-means objective which is Sum of distances of samples to their closest cluster center):
-0.0033235546577580865
Silhouette_score:
0.12177838
1 ['I', 'found', 'a', 'love', 'for', 'me']
1 ['darling', 'just', 'dive', 'right', 'in']
1 ['and', 'follow', 'my', 'lead']
1 ['well', 'I', 'found', 'a', 'girl', 'beautiful', 'and', 'sweet']
0 ['I', 'never', 'knew', 'you', 'were', 'the', 'someone', 'waiting', 'for', 'me']
1 ['cause', 'we', 'were', 'just', 'kids', 'when', 'we', 'fell', 'in', 'love']
0 ['not', 'knowing', 'what', 'it', 'was']
0 ['I', 'will', 'not', 'give', 'you', 'up', 'this', 'time']
1 ['but', 'darling,', 'just', 'kiss', 'me', 'slow', 'your', 'heart', 'is', 'all', 'I', 'own']
1 ['and', 'in', 'your', 'eyes', 'you', 'are', 'holding', 'mine']
1 ['baby,', 'I', 'am', 'dancing', 'in', 'the', 'dark', 'with', 'you', 'between', 'my', 'arms']
0 ['barefoot', 'on', 'the', 'grass,', 'listening', 'to', 'our', 'favorite', 'song']
1 ['when', 'you', 'said', 'you', 'looked', 'a', 'mess', 'I', 'whispered', 'underneath', 'my', 'breath']
1 ['but', 'you', 'heard', 'it', 'darling', 'you', 'look', 'perfect', 'tonight']
1 ['well', 'I', 'found', 'a', 'woman', 'stronger', 'than', 'anyone', 'I', 'know']
0 ['she', 'shares', 'my', 'dreams,', 'I', 'hope', 'that', 'someday', 'I', 'will', 'share', 'her', 'home']
1 ['I', 'found', 'a', 'love,', 'to', 'carry', 'more', 'than', 'just', 'my', 'secrets']
0 ['to', 'carry', 'love,', 'to', 'carry', 'children', 'of', 'our', 'own']
1 ['we', 'are', 'still', 'kids', 'but', "we're", 'so', 'in', 'love']
0 ['fighting', 'against', 'all', 'odds']
1 ['I', 'know', 'we', 'will', 'be', 'alright', 'this', 'time']
1 ['darling,', 'just', 'hold', 'my', 'hand']
1 ['be', 'my', 'girl,', 'I', 'will', 'be', 'your', 'man']
1 ['I', 'see', 'my', 'future', 'in', 'your', 'eyes']
1 ['baby,', 'I', 'am', 'dancing', 'in', 'the', 'dark,', 'with', 'you', 'between', 'my', 'arms']
0 ['barefoot', 'on', 'the', 'grass,', 'listening', 'to', 'our', 'favorite', 'song']
1 ['when', 'I', 'saw', 'you', 'in', 'that', 'dress,', 'looking', 'so', 'beautiful']
1 ['I', 'don', 'not', 'deserve', 'this', 'darling,', 'you', 'look', 'perfect', 'tonight']
1 ['baby,', 'I', 'am', 'dancing', 'in', 'the', 'dark,', 'with', 'you', 'between', 'my', 'arms']
0 ['barefoot', 'on', 'the', 'grass,', 'listening', 'to', 'our', 'favorite', 'song']
1 ['I', 'have', 'faith', 'in', 'what', 'I', 'see']
1 ['now', 'I', 'know', 'I', 'have', 'met', 'an', 'angel', 'in', 'person']
1 ['and', 'she', 'looks', 'perfect']
0 ['I', 'do', 'not', 'deserve', 'this']
1 ['you', 'look', 'perfect', 'tonight']
sofiareichl@DESKTOP-898QRQD:/mnt/c/Master/3rd Semestre/DL - Deep Learning/Lab/Lab2_EmbeddingSpaces/Word_Emb$